Chromsome,Start,Stop,GeneID,GeneSymbol,184B5,185A1,21MT1,21MT2,21NT,21PT,600MPE,AU565,BT20,BT474,BT483,BT549,CAL120,CAL148,CAL51,CAL851,CAMA1,COLO824,EFM19,EFM192A,EFM192B,EFM192C,EVSAT,HBL100,HCC1143,HCC1187,HCC1395,HCC1419,HCC1428,HCC1569,HCC1599,HCC1806,HCC1937,HCC1954,HCC202,HCC2185,HCC2218,HCC3153,HCC38,HCC70,HDQP1,HS578T,JIMT1,LY2,MCF10A,MCF10F,MCF12A,MCF7,MDAMB157,MDAMB231,MDAMB361,MDAMB415,MDAMB436,MDAMB453,MDAMB468,MFM223,MT3,PMC42,S1,SKBR3,SUM102PT,SUM1315MO2,SUM149PT,SUM159PT,SUM185PE,SUM225CWN,SUM229PE,SUM44PE,SUM52PE,T4,T47D,UACC812,ZR751,ZR75B
1,25471568,25529523,6007,RHD,-0.046,-0.01,-2.584,-1.335,-1.63,-1.363,-2.45,-0.136,-0.18,-0.234,-0.44,0.218,0.059,-0.091,-0.018,-0.135,-0.163,-0.226,-0.349,-1.52,-1.325,-1.577,-0.387,0,-0.081,-0.204,0.122,-0.12,0.025,-0.354,-1.907,-0.116,-1.366,-0.931,-2.184,-1.757,-0.667,-2.619,0.132,-2.179,-1.655,0.23,-0.349,-0.407,-1.258,-1.877,-0.262,0.288,-1.321,-1.752,0.344,-0.015,-0.338,0.387,0.194,-0.197,-0.024,-1.902,-0.615,0.262,-2.396,0.226,0.206,0.018,-0.156,0.057,0.245,-1.382,0.482,-0.348,-0.299,0.165,-2.045,-1.621
1,75444868,75849359,204962,SLC44A5,-0.027,0.04,0.261,-0.355,-0.263,0.286,0.014,0.102,-0.219,-0.32,-0.214,0.166,0.108,-0.085,-0.064,-0.056,-3.945,0.903,-0.004,-2.918,-0.398,-0.4,-0.018,0.295,-0.041,0.54,-0.944,0.098,-0.494,-0.029,0.001,-0.116,-0.193,-0.172,0.048,-0.263,0.017,-0.062,-3.665,0.254,-0.185,0.226,-0.368,-0.47,-2.968,-0.046,-0.285,-0.201,-0.126,0.39,-0.172,-0.032,0.212,-0.063,0.151,-0.215,-2.832,-0.057,0.024,0.279,-0.028,-3.573,0.174,0.014,-0.139,0.045,-0.082,-0.425,0.058,0.04,-0.3,-0.284,-0.366,-0.36
1,89244956,89261132,2635,GBP3,-0.027,0.04,-0.006,-0.355,-0.292,-0.036,0.014,0.102,-0.219,-0.252,-0.189,0.15,0.108,-0.144,-0.075,-0.056,-0.545,0.589,-0.004,-0.455,-0.398,-0.4,-0.018,-3.361,-0.062,-0.05,-3.626,0.098,-0.463,-0.029,0.025,-0.116,0.296,-0.172,0.04,-0.263,0.017,0.218,-0.037,0.3,-0.185,0.226,0.895,-0.47,-0.102,-0.046,-3.489,-0.55,-0.126,0.708,-0.172,-0.032,0.237,-0.063,0.151,-0.215,-0.1,-0.052,0.024,0.266,-0.05,0.462,0.202,-4.112,-0.139,0.134,-0.035,-0.425,0.043,0.045,-0.3,-3.392,-0.366,-0.36
1,108478968,108544421,29957,SLC25A24,-0.027,0.04,-0.027,-0.355,-0.284,-0.033,0.014,0.102,0.444,-0.243,-0.156,0.224,0.076,-0.085,-0.062,-0.056,0.456,0.589,-0.004,0.151,0.279,0.296,-0.018,0.01,-0.06,-0.518,-0.31,-4.153,0.005,-0.041,0.039,-0.132,0.296,-0.216,0.04,-3.632,0.018,0.224,0.636,0.251,-0.188,0.226,-0.322,0.538,-0.112,-0.046,-0.173,1.121,-0.126,0.534,-0.172,-0.032,-0.409,-0.063,0.151,-0.215,-0.069,-0.055,0.032,0.268,0.01,0.164,0.188,-4.56,-3.419,0.083,-0.27,0.174,0.043,0.045,-4.56,-0.303,-0.389,-0.36
1,110031965,110037890,2944,GSTM1,1.09,1.199,-0.027,-0.355,-0.284,-0.033,1.308,0.102,2.472,-0.243,-0.13,1.142,0.076,0.972,-0.062,1.125,0.296,1.894,1.643,1.82,1.94,1.866,-0.018,0.01,0.868,-0.518,-0.31,1.245,0.005,1.479,0.039,-0.132,2.103,1.379,1.676,-0.257,1.233,-0.444,2.34,1.976,-0.188,1.276,1.487,2.435,1.151,1.068,-0.173,2.546,1.445,1.813,-0.172,1.723,-0.409,-0.063,1.59,-0.215,-0.069,-0.055,0.032,1.282,1.255,0.164,0.188,1.108,1.492,-0.384,-0.27,0.174,0.043,0.045,-0.303,-0.303,1.499,1.386
1,150839832,150840116,353144,LCE3C,0.266,0.004,0.111,-0.333,0.284,0.301,-1.958,0.495,-2.398,-0.129,-2.13,-1.861,-0.014,0.502,-0.028,0.761,-1.961,-1.761,-1.775,-1.552,-1.77,-1.911,-1.631,-2.495,-2.008,-1.872,0.059,0.09,0.015,1.19,0.616,0.642,-1.693,-1.825,-2.024,0.754,-2.677,-0.518,0.206,0.277,-1.842,-0.064,-1.672,-2.123,-1.465,-1.368,0.333,-1.955,0.833,-0.582,-0.172,0.716,0.986,-1.643,0.174,-0.073,-0.073,-2.265,0.032,0.268,0.015,-0.255,-0.111,0,-1.569,-2.222,-1.451,0.174,-2.241,0.045,-1.976,-1.915,-2.744,-2.627
1,150852911,150853198,353143,LCE3B,0.266,0.004,0.111,-0.333,0.284,0.301,-1.958,0.495,-2.398,-0.129,-2.13,0.134,-0.014,0.502,-0.028,0.761,-1.961,-1.761,0.254,0.201,-1.77,-1.911,-0.373,-2.495,-2.008,-1.872,0.059,0.09,0.015,1.19,0.616,0.642,-0.503,-1.825,-2.024,0.754,-2.677,-0.518,0.206,0.277,-0.017,-0.064,-0.345,-2.123,0.224,-1.368,0.333,-1.955,0.833,-0.582,-0.172,0.716,0.986,-1.643,0.174,-0.073,-0.073,0.1,0.032,0.268,0.015,-0.255,-0.111,0,-1.569,-2.222,-1.451,0.174,0.291,0.045,-1.976,-1.915,-2.744,-2.627
1,167368393,167603810,29922,NME7,0.266,0.004,0.214,-1.069,0.216,0.256,0.651,0.492,0.162,-0.676,0.603,0.1,-0.37,-2.614,-0.081,-2.795,0.446,0.402,0.251,-2.474,-2.471,-2.787,0.123,0.01,-2.446,-2.095,0.059,0.09,-0.024,0.403,0.272,-0.156,-2.232,0.236,0.524,0.176,0.392,0.183,-0.096,0.277,-0.004,-0.064,-2.515,0.176,0.236,-0.074,0.25,0.296,-1.802,-3.103,-0.222,-0.052,0.032,0.286,0.131,0.428,-0.073,-2.989,0.032,0.263,-3.228,-0.23,-0.172,0,0.084,0.089,0.243,0.499,0.291,0.003,0.282,0.067,0.445,-0.997
1,195010571,195154386,10877,CFHL4,0.546,0.058,0.512,0.08,-0.21,0.554,0.651,0.5,0.162,0.706,0.482,0.492,-0.099,0.569,1.303,0.209,0.442,-0.625,0.55,0.439,0.251,0.289,0.168,0.058,2.355,0.418,-2.181,0.09,-0.838,0.434,0.658,0.253,0.026,0.136,-1.672,0.176,-2.378,0.221,2.628,-2.421,-0.439,-0.061,0.671,0.408,0.236,-0.018,2.183,0.351,0.315,0.099,2.833,0.39,0.207,0.745,0.152,2.825,-0.134,0.012,0.032,0.263,0.383,-0.264,-1.268,0,0.029,0.153,0.243,0.502,0.291,0.034,0.282,1.222,0.569,-2.009
10,31173569,31313361,220929,LOC220929,-3.116,0.017,-2.433,-2.701,-2.174,-2.277,0.021,-3.307,0.326,-0.091,0.102,-2.386,0.096,-0.114,-0.075,0.299,-0.139,-0.257,-1.229,-0.124,-0.388,0.269,-0.415,-0.37,0.431,-2.209,-0.292,-0.132,-0.014,-0.03,0.021,-0.151,-1.897,0.022,0.084,0.183,0.014,0.083,0.042,0.762,0.27,-2.689,-0.108,-0.356,-0.084,-0.054,-0.337,0.09,-0.589,-2.667,0.019,0.213,0.274,-0.043,-0.22,0.166,-0.085,-0.038,0.026,-1.109,-0.03,0.189,0.189,0.033,0.416,-0.204,0.008,0.133,-0.773,-0.106,-0.302,0.08,-0.074,0.009
10,124310171,124393242,1755,DMBT1,-0.036,0.012,-0.329,-0.358,-0.275,-0.362,0.014,-0.15,-0.868,-3.561,-0.116,-0.159,-0.37,-0.099,-0.055,-0.346,-0.167,-0.356,-0.398,-0.114,-0.04,0.019,-0.399,-0.068,-0.078,-0.204,0.315,-0.148,-0.008,-0.386,-0.368,0.221,0.4,-0.208,-0.224,-0.264,-0.048,-0.305,-0.408,-0.268,-0.048,-0.603,-0.366,0.022,-0.084,-0.054,0.198,0.108,-0.167,-0.224,0.032,0.319,0.013,-0.043,-0.218,-0.229,-0.06,0.024,0.057,-0.202,0.018,0.142,-0.198,0.033,0.008,-4.07,-3.272,-0.414,-0.254,-0.118,-0.304,0.08,0.118,-0.366
11,49554218,49788541,440040,LOC440040,-0.035,0.059,-0.226,-0.301,-0.153,-0.258,0.027,0.113,-0.2,-0.038,-0.316,-0.995,0.134,-0.115,-0.048,-3.492,-0.522,-0.222,-1.248,-0.233,0.01,0.053,0.003,-0.397,0.311,0.239,-0.316,-0.152,0.205,-0.048,0.064,0.224,-0.105,0.093,-0.254,-2.19,0.017,0.23,0.333,-0.225,-0.219,-0.31,0.478,0.181,0.157,-0.053,-3.913,0.238,-0.11,0.111,-0.176,0.003,0.202,-0.043,0.174,-1.423,-0.035,-0.572,0.029,0.051,-0.107,0.178,0.416,-0.006,-0.126,0.149,-0.349,0.165,-1.651,0.014,0.326,0.075,-0.042,0.023
11,60737585,60755969,643847,LOC643847,0.323,-0.007,-2.361,-2.738,-2.467,-2.891,-0.033,0.113,-0.196,0.435,-0.1,0.207,0.048,-0.115,0,0.082,-0.493,-0.222,-0.019,-0.103,-0.017,0.053,-0.046,-0.403,-0.09,0.239,0.515,-0.981,0.285,-0.048,-0.141,-0.067,0.199,0.093,0.041,0.28,0.006,0.23,-0.021,-0.225,-0.235,-0.181,-0.009,0.177,0.157,-0.053,-0.267,0.093,-0.11,0.111,-0.222,-0.037,0.196,-0.033,0.174,-0.23,-0.025,0.07,0.029,0.051,-0.016,-0.159,0.307,-0.016,-3.563,0.153,-0.242,-0.432,0.194,0.014,0.326,0.074,-0.458,-0.383
11,82848327,84312086,1740,DLG2,0.695,0.045,0.921,1.427,1.315,0.93,-0.634,0.113,0.18,-0.244,-0.632,-1.16,0.266,-0.115,-0.144,0.159,-0.541,-0.263,-0.397,0.236,2.087,0.917,-0.034,-0.389,-0.094,-3.323,-0.323,-0.465,-0.054,0.189,-0.401,0.841,-0.064,0.306,0.063,0.242,0.016,0.23,0.256,-0.225,-0.21,-0.181,0.009,0.19,0.157,-0.053,-0.386,2.017,-0.109,0.096,-0.208,-0.433,0.866,-0.044,0.139,-0.215,1.582,0.013,0.029,0.051,-0.064,-0.884,-2.328,-0.016,-0.106,0.162,-0.349,-0.426,-0.024,0.014,0.324,0.333,-0.258,-0.386
12,732993,888219,65125,WNK1,-0.048,-0.019,0.009,0.124,0.046,-0.033,0.026,0.099,0.18,0.122,0.305,-2.678,0.362,-0.113,-0.031,-3.428,-0.54,0.324,-1.266,-0.458,-0.392,-0.393,-0.052,-0.009,-0.122,0.189,-3.535,0.077,-0.939,0.322,-1.224,0.394,0.55,0.107,-3.139,0.382,0,0.808,-0.046,0.007,0.122,-0.115,-0.514,-0.394,-0.102,-0.074,0.035,-0.18,-0.318,0.118,0.462,-0.447,0.882,-0.055,-0.226,-0.286,-0.082,-0.088,-1.567,0.032,-1.491,-0.177,0.578,0.01,0.164,0.007,0.06,0.155,0.193,-0.352,0.045,-0.3,0.583,0.28
12,9515500,9617344,644125,LOC644125,-0.048,0.007,-1.371,-1.655,-1.853,-1.603,-1.687,-2.113,0.128,0.929,0.894,-1.571,0.362,0.62,-2.018,-1.907,-0.54,-1.524,-0.02,-0.465,-0.426,-0.407,-0.047,-2.092,-1.657,0.909,-2.359,0.077,-2.166,0.968,-0.664,1.128,-1.62,-0.648,-1.946,0.364,0,0.146,-1.847,0.007,-1.535,0.651,-1.391,-2.228,-0.102,-0.074,0.78,-1.774,-1.502,0.922,-1.829,1.004,0.987,-0.051,-0.226,0.859,-0.082,0.604,0.019,-1.901,0.847,-1.977,0.021,-2.172,-1.48,-1.792,-1.433,0.155,-0.348,0.113,-1.841,0.456,0.568,0.28
12,10474465,10479859,3822,KLRC2,-0.048,0.007,0.017,0.029,-0.351,-0.006,0.038,-4.945,0.128,0.073,0.172,-0.258,0.362,-0.126,-0.094,0.092,-0.537,0.068,-0.02,-0.465,-0.409,-0.407,-0.047,-2.021,-0.087,0.204,-1.394,0.077,-0.416,0.21,-0.664,0.23,0.269,-0.566,-0.339,0.364,0,0.146,-0.033,0.007,0.156,-0.092,-0.046,-0.409,-0.102,-0.074,-0.013,-0.216,-0.322,0.115,0.239,0.193,0.572,-0.051,-0.226,0.153,-0.082,-0.07,0.019,-1.749,0.26,-0.206,0.108,0.002,0.177,0.016,-0.249,0.155,0.216,0.199,-0.858,-0.32,0.568,0.28
12,84896655,85756776,25834,GNTIVH,-0.048,-0.63,-0.152,0.044,-0.226,0.029,0,0.087,-0.89,-0.287,0.024,-1.829,-0.366,-0.102,-0.097,0.04,0.268,-0.262,0.277,0.184,0.311,0.338,0.118,0.006,-0.35,-0.2,-0.324,0.09,0.473,-0.406,0.001,-0.148,-0.224,-0.173,-0.316,0.473,0,-0.286,-0.029,-5.759,-0.453,-0.242,-0.362,0.183,-0.095,-0.021,-0.022,0.043,-0.039,0.167,0.747,0.227,-0.464,-0.018,-0.226,0.179,-0.12,-0.069,0.017,0.049,-0.084,-0.21,-4.154,0.011,0.196,-0.014,-0.004,0.174,0.916,0.183,0.315,0.074,-0.046,-0.007
12,97653202,98902563,56899,EB-1,-0.048,-0.694,-0.849,-1.222,-1.848,-1.055,0,-0.231,-0.895,0.219,0.241,-1.335,-0.408,-0.132,-0.097,-0.04,0.268,0.335,0.864,-2.232,-0.972,-0.417,-0.404,-2.015,-0.404,-0.23,-0.324,0.09,0.473,-1.84,0.001,-0.148,-0.221,1.403,-0.99,-2.498,-0.685,-0.286,-0.029,-2.022,-0.509,-0.242,-0.031,0.183,-0.095,-0.086,-0.076,0.101,-1.554,0.134,0.719,0.221,-2.601,-0.062,-0.226,0.137,0.532,-0.069,0.017,-0.271,-0.09,0.162,-0.278,0.011,-1.876,-0.239,-0.004,0.174,0.561,0.153,0.315,-0.262,-0.046,-0.007
14,73014945,73095404,399671,MGC48595,-0.052,-0.018,-1.466,-1.562,-1.677,-1.502,-0.006,0.339,-0.173,0.142,-0.418,0.204,-0.184,-0.126,-0.079,-0.356,-0.18,-0.257,0.223,0.104,0.344,0.273,-1.812,0.531,0.109,0.97,-0.302,-0.286,-0.06,-0.426,-0.203,-3.549,-0.064,0.097,-0.191,0.297,0.003,0.026,-0.436,-0.187,-0.256,-0.081,-0.391,-1.966,-0.1,-0.096,0.051,-2.039,-1.651,-0.202,0.111,-0.318,-0.255,0.303,1.592,-1.836,-0.068,-0.034,0.021,0.04,-0.019,0.184,-0.121,-0.014,0.027,-2.016,0.006,0.143,-2.601,0.429,0.279,-2.152,-0.052,-0.394
14,73072573,73081492,641371,ACOT1,-0.052,-0.018,-1.466,-1.562,-1.677,-1.502,-0.006,0.339,-0.173,0.142,-0.418,0.204,-0.184,-0.126,-0.079,-0.356,-0.18,-0.257,0.223,0.104,0.344,0.273,-1.812,0.531,0.109,0.97,-0.302,-0.286,-0.06,-0.426,-0.203,-0.147,-0.064,0.097,-0.191,0.297,0.003,0.026,-0.436,-0.187,-0.256,-0.081,-0.391,-1.966,-0.1,-0.096,0.051,-2.039,-1.651,-0.202,0.111,-0.318,-0.255,0.303,1.592,-1.836,-0.068,-0.034,0.021,0.04,-0.019,0.184,-0.121,-0.014,0.027,-2.016,0.006,0.143,-0.45,0.429,0.279,-2.152,-0.052,0.276
14,105623329,105623774,28451,IGHV3-9,0.689,0.872,0.615,0.852,0.882,0.633,0.717,-1.798,0.585,0.673,2.341,-0.959,0.591,1.474,1.645,0.312,0.618,1.076,0.738,-0.883,-1.205,-1.44,-1.205,-2.449,-1.653,1.309,0.868,0.488,1.422,0.404,-0.85,0.7,-0.694,0.82,-1.219,1.632,-1.53,0.746,1.075,0.515,0.994,0.629,0.465,1.192,0.644,0.584,0.799,0.898,1.251,-1.775,1.666,0.846,1.526,1.032,1.326,-1.391,0.708,-1.916,0.802,-1.306,0.744,2.483,1.498,0.717,-1.884,1.993,0.777,0.768,1.049,-1.647,1.114,-0.949,1.818,0.688
14,105630585,105631025,28456,IGHV2-10,0.689,0.872,0.615,0.852,0.882,0.633,0.717,-1.798,0.585,0.673,2.341,-0.959,0.591,1.474,1.645,0.312,0.618,1.076,0.738,-0.883,-1.205,-1.44,-1.205,-2.449,-1.653,1.309,0.868,0.488,1.422,0.404,-0.85,0.7,-0.694,0.82,-1.219,1.632,-1.53,0.746,1.075,0.515,0.994,0.629,0.465,1.192,0.644,0.584,0.799,0.898,1.251,-1.775,1.666,0.846,1.526,1.032,1.326,-1.391,0.708,-1.916,0.802,-1.306,0.744,2.483,1.498,0.717,-1.884,1.993,0.777,0.768,1.049,-1.647,1.114,-0.949,1.818,0.688
15,74427592,74963247,49855,ZNF291,1.69,1.463,-1.364,-2.238,-0.27,-1.845,1.389,1.241,1.103,-2.232,0.842,-2.143,0.819,-1.45,1.364,1.606,-1.568,1.17,1.104,-0.126,-1.775,-1.834,1.009,0.798,-1.604,1.159,1.567,-1.657,-2.226,1.656,1.696,0.899,-1.684,1.304,1.187,-1.828,-1.925,1.473,-1.248,1.151,1.159,-0.318,-0.126,-1.928,-0.096,-1.397,0.568,-1.225,1.228,1.442,1.309,-1.604,0.992,-0.64,1.137,0.558,-1.34,-1.936,0.016,1.19,1.432,1.798,1.79,1.377,-1.361,1.133,1.031,0.129,-1.919,1.042,0,-1.574,1.463,1.105
15,82642929,82659681,440300,LOC440300,-0.022,-0.006,-0.278,-0.003,0.078,-0.383,-0.003,-0.195,0.157,-0.185,-0.095,0.12,-0.381,-0.126,-0.077,0.042,-0.192,-0.253,-1.8,-0.126,-0.033,-0.257,-0.421,0.003,-0.11,-2.785,0.21,-0.17,-3.663,0.171,0.273,-0.536,-1.014,-0.1,-2.953,-0.332,-0.016,0.068,-0.028,-0.025,0.083,-0.318,-0.126,-0.054,-0.096,-0.085,-0.28,0.275,-0.167,0.093,0.064,0.16,-0.455,-0.64,-0.24,-0.236,0.244,0.147,0.016,-0.238,-0.022,-2.399,0.202,-0.039,-0.188,-0.404,0.016,-2.946,-0.224,-0.037,0,-2.542,0.085,-0.388
15,82659067,82689894,388152,LOC388152,-0.022,-0.006,-0.278,-0.003,0.078,-0.383,-0.003,-0.195,0.157,-0.185,-0.095,0.12,-0.381,-0.126,-0.077,0.042,-0.192,-0.253,-1.8,-0.126,-0.033,-0.257,-0.421,0.003,-0.11,-2.785,0.21,-0.17,-3.663,0.171,0.273,-0.536,-1.014,-0.1,-2.953,-0.332,-0.016,0.068,-0.028,-0.025,0.083,-0.318,-0.126,-0.054,-0.096,-0.085,-0.28,0.275,-0.167,0.093,0.064,0.16,-0.455,-0.64,-0.24,-0.236,0.244,0.147,0.016,-0.238,-0.022,-2.399,0.202,-0.039,-0.188,-0.404,0.016,-2.946,-0.224,-0.037,0,-2.542,0.085,-0.388
15,82695535,82705357,161527,LOC161527,-0.022,-0.006,-0.278,-0.003,0.078,-0.383,-0.003,-0.195,0.157,-0.185,-0.095,0.12,-0.381,-0.126,-0.077,0.042,-0.192,-0.253,-1.8,-0.126,-0.033,-0.257,-0.421,0.003,-0.11,-2.785,0.21,-0.17,-3.663,0.171,0.273,-0.536,-1.014,-0.1,-2.953,-0.332,-0.016,0.068,-0.028,-0.025,0.083,-0.318,-0.126,-0.054,-0.096,-0.085,-0.28,0.275,-0.167,0.093,0.064,0.16,-0.455,-0.64,-0.24,-0.236,0.244,0.147,0.016,-0.238,-0.022,-2.399,0.202,-0.039,-0.188,-0.404,0.016,-2.946,-0.224,-0.037,0,-2.542,0.085,-0.388
16,54352012,54366339,51716,CES4,2.709,1.241,-0.004,0.016,0.288,-0.01,-0.627,-2.149,0.18,-0.004,0.161,0.179,-0.33,-0.718,1.016,-0.478,0.089,-0.243,-0.4,-0.115,0.172,-0.021,2.93,2.752,-0.05,-0.2,0.091,2.452,0.254,0.626,2.311,0.919,0.504,-1.56,-0.316,-0.113,-0.651,0.877,0.916,0.442,-0.044,-0.133,0.811,-0.436,1.11,-0.058,0.596,2.724,-0.074,0.245,-0.22,1.808,-0.41,0.158,0.152,2.868,-0.059,-0.062,0.046,-1.816,-0.03,1.372,1.53,0.026,-0.24,0.86,0.185,0.989,-0.145,0.295,-2.051,2.179,2.961,1.452
16,76691052,77804065,51741,WWOX,0.801,0.765,-0.935,-0.443,-1.405,-0.788,-2.18,-0.55,-2.831,0.092,0.19,-2.109,0.101,-1.764,-0.105,0.133,-1.822,-2.185,-2.668,-2.172,-2.303,-2.235,-1.903,-0.483,-0.105,0.708,0.091,-0.139,-2.381,-1.667,-0.124,-0.81,0.304,0.23,-2.29,-1.709,-0.66,-0.412,-1.319,0.442,-0.523,-2.607,-2.298,0.572,0.217,-0.058,-2.168,0.448,-0.661,-2.395,0.457,-2.223,-2.09,-1.648,-1.899,0.628,0.826,-0.062,0.046,-0.561,-0.005,-0.206,-2.091,0.026,0.541,-2.344,1.107,-0.389,-0.132,-1.443,-2.033,0.479,-0.056,-0.372
17,8183913,8190088,146852,ODF4,-0.058,-0.019,-0.041,-0.372,-0.282,-0.028,-0.021,-0.166,0.165,-0.156,-0.362,0.458,-0.136,-0.099,-3.848,0.214,-0.517,-0.279,-3.307,0.313,0.204,0.267,-0.399,0.009,0.038,-0.205,0.101,-0.138,-5.279,-0.028,-0.254,0.258,-0.128,-0.227,-0.276,-0.019,-0.665,-0.08,-0.412,-4.569,-0.832,-4.154,-0.34,-0.429,-0.071,-0.064,0.268,-0.199,0.193,0.103,-0.212,-0.317,-4.426,-0.61,-0.207,-0.228,-0.062,-0.027,0.035,-0.217,-0.006,-0.182,0.164,-0.556,-0.156,-0.366,-0.318,-0.43,-3.845,-3.502,-0.307,-0.299,-3.855,-4.116
17,18304370,18307370,252968,LOC252968,1.28,0.588,0.501,0.367,0.381,0.638,-1.369,-0.166,-1.456,-0.156,-1.636,-1.134,0.566,-1.141,-1.192,0.214,-1.45,0.4,0.634,1.218,0.226,0.907,0.619,-1.654,-1.316,-1.487,0.101,0.844,0.22,-0.028,-0.254,0.258,-1.046,0.725,-0.294,-0.023,-1.956,-0.08,-1.531,0.477,-1.568,0.248,0.383,-0.429,-0.071,-0.064,-1.471,-0.153,0.193,0.11,-0.212,-1.742,0.585,0.549,-0.207,-0.016,0.581,-0.038,0.035,-0.217,-0.002,-1.546,-0.193,-0.556,-1.14,-1.583,-0.318,-0.43,-0.144,0.281,0.247,0.834,-0.431,-0.364
17,18320782,18338978,654346,LOC654346,1.28,0.588,0.501,0.367,0.381,0.638,-1.369,-0.166,-1.456,-0.156,-1.636,-1.134,0.566,-1.141,-1.192,0.214,-1.45,0.4,0.634,1.218,0.226,0.907,0.619,-1.654,-1.316,-1.487,0.101,0.844,0.22,-0.028,-0.254,0.258,-1.046,0.725,-0.294,-0.023,-1.956,-0.08,-1.531,0.477,-0.459,0.248,0.383,-0.429,-0.071,-0.064,-1.471,-0.153,0.193,0.11,-0.212,-1.742,0.585,0.549,-0.207,-0.016,0.581,-0.038,0.035,-0.217,-0.002,-1.546,-0.193,-0.556,-1.14,-1.583,-0.318,-0.43,-0.144,0.281,0.247,0.834,-0.431,-0.364
17,18327917,18338978,147158,LOC147158,1.28,0.588,0.501,0.367,0.381,0.638,-1.369,-0.166,-1.456,-0.156,-1.636,-1.134,0.566,-1.141,-1.192,0.214,-1.45,0.4,0.634,1.218,0.226,0.907,0.619,-1.654,-1.316,-1.487,0.101,0.844,0.22,-0.028,-0.254,0.258,-1.046,0.725,-0.294,-0.023,-1.956,-0.08,-1.531,0.477,-0.459,0.248,0.383,-0.429,-0.071,-0.064,-1.471,-0.153,0.193,0.11,-0.212,-1.742,0.585,0.549,-0.207,-0.016,0.581,-0.038,0.035,-0.217,-0.002,-1.546,-0.193,-0.556,-1.14,-1.583,-0.318,-0.43,-0.144,0.281,0.247,0.834,-0.431,-0.364
17,18341129,18347324,201288,LOC201288,1.28,0.588,0.501,0.367,0.381,0.638,-1.369,-0.166,-1.456,-0.156,-1.636,-1.134,0.566,-1.141,-1.192,0.214,-1.45,0.4,0.634,1.218,0.226,0.907,0.619,-1.654,-1.316,-1.487,0.101,0.844,0.22,-0.028,-0.254,0.258,-1.046,0.725,-0.294,-0.023,-1.956,-0.08,-1.531,0.477,-0.459,0.248,0.383,-0.429,-0.071,-0.064,-1.471,-0.153,0.193,0.11,-0.212,-1.742,0.585,0.549,-0.207,-0.016,0.581,-0.038,0.035,-0.217,-0.002,-1.546,-0.193,-0.556,-1.14,-1.583,-0.318,-0.43,-0.144,0.281,0.247,0.834,-0.431,-0.364
17,18355301,18364845,220594,LOC220594,1.28,0.588,0.501,0.367,0.381,0.638,-1.369,-0.166,-1.456,-0.156,-1.636,-1.134,0.566,-1.141,-1.192,0.214,-1.45,0.4,0.634,1.218,0.226,0.907,0.619,-1.654,-1.316,-1.487,0.101,0.844,0.22,-0.028,-0.254,0.258,-1.046,0.725,-0.294,-0.023,-1.956,-0.08,-1.531,0.477,-0.459,0.248,0.383,-0.429,-0.071,-0.064,-1.471,-0.153,0.193,0.11,-0.212,-1.742,0.585,0.549,-0.207,-0.016,0.581,-0.038,0.035,-0.217,-0.002,-1.546,-0.193,-0.556,-1.14,-1.583,-0.318,-0.43,-0.144,0.281,0.247,0.42133,-0.431,-0.364
17,18368605,18370885,80039,FAM106A,1.28,0.588,0.501,0.367,0.381,0.638,-1.369,-0.166,-1.456,-0.156,-1.636,-1.134,0.566,-1.141,-1.192,0.214,-1.45,0.4,0.634,1.218,0.226,0.907,0.619,-1.654,-1.316,-1.487,0.101,0.844,0.22,-0.028,-0.254,0.258,-1.046,0.725,-0.294,-0.023,-1.956,-0.08,-1.531,0.477,-0.459,0.248,0.383,-0.429,-0.071,-0.064,-1.471,-0.153,0.193,0.11,-0.212,-1.742,0.585,0.549,-0.207,-0.016,0.581,-0.038,0.035,-0.217,-0.002,-1.546,-0.193,-0.556,-1.14,-1.583,-0.318,-0.43,-0.144,0.281,0.247,0.357,-0.431,-0.364
17,18371597,18372500,252840,LOC252840,1.28,0.588,0.501,0.367,0.381,0.638,-1.369,-0.166,-1.456,-0.156,-1.636,-1.134,0.566,-1.141,-1.192,0.214,-1.45,0.4,0.634,1.218,0.226,0.907,0.619,-1.654,-1.316,-1.487,0.101,0.844,0.22,-0.028,-0.254,0.258,-1.046,0.725,-0.294,-0.023,-1.956,-0.08,-1.531,0.477,-0.459,0.248,0.383,-0.429,-0.071,-0.064,-1.471,-0.153,0.193,0.11,-0.212,-1.742,0.585,0.549,-0.207,-0.016,0.581,-0.038,0.035,-0.217,-0.002,-1.546,-0.193,-0.556,-1.14,-1.583,-0.318,-0.43,-0.144,0.281,0.247,0.357,-0.431,-0.364
17,18381839,18469646,284047,FLJ36492,1.28,0.588,0.501,0.367,0.381,0.638,-1.369,-0.166,-1.456,-0.156,-1.636,-1.134,0.566,-1.141,-1.192,0.214,-1.45,0.4,0.634,1.218,0.226,0.907,0.619,-1.654,-1.316,-1.487,0.101,0.844,-0.411,-0.028,-0.254,0.258,-1.046,0.725,-0.294,-0.023,-1.956,-0.08,-1.531,0.477,-0.459,0.248,0.383,-0.429,-0.071,-0.064,-1.471,-0.153,0.193,0.11,-0.212,-1.742,0.585,0.549,-0.207,-0.835,0.581,-0.038,0.035,-0.217,-0.002,-1.546,-0.193,-0.556,-1.14,-1.583,-0.318,-0.43,-0.144,0.281,-1.31,0.357,-0.431,-0.364
17,34670366,34811402,84961,FBXL20,-0.054,-0.027,-0.024,0.04,0.081,-0.014,0.376,1.965,-0.203,1.862,0.242,-0.07,-0.147,-0.103,0.009,0.009,0.096,-0.194,0.456,2.028,1.521,1.584,-0.044,-0.121,-0.445,-2.35,-0.316,-0.482,-0.411,-0.028,0.325,-0.144,-0.141,-0.106,1.605,-0.04,-0.695,0.201,0.22,-0.268,-0.033,-0.207,1.628,-0.434,-0.071,-0.064,0.089,-0.505,-0.133,0.11,0.77,-0.333,-0.388,-0.013,-0.207,-0.231,-0.052,-0.038,0.035,1.946,-0.002,-0.191,-0.193,0.052,-0.32,-0.362,0.282,-0.43,-0.144,0.101,0.294,1.743,-0.034,0.021
17,34816380,34861030,5469,PPARBP,-0.054,-0.027,1.611,1.793,1.539,1.606,0.376,1.965,-0.203,1.862,0.242,-0.07,-0.147,-0.103,0.009,0.009,0.096,-0.194,0.456,1.796,1.521,1.584,-0.044,-0.121,-0.445,-0.199,-0.316,-0.482,-0.411,-0.028,0.325,-0.144,-0.141,-0.106,1.605,-0.04,-0.695,0.201,0.22,-0.268,-0.033,-0.207,1.628,-0.434,-0.071,-0.064,0.089,-0.505,-0.133,0.11,0.77,-0.333,-0.388,-0.013,-0.207,-0.231,-0.052,-0.038,0.035,1.946,-0.002,-0.191,-0.193,0.052,-0.32,-0.362,0.282,-0.43,-0.144,0.101,0.294,1.743,-0.034,0.021
17,34871818,34942045,51755,CRKRS,-0.054,-0.027,1.611,1.793,1.539,1.606,0.376,1.965,-0.203,1.862,0.242,-0.07,-0.147,-0.103,0.009,0.009,0.096,-0.194,0.456,1.796,1.521,1.584,-0.044,-0.121,-0.445,-0.199,-0.316,-0.482,-0.411,1.819,0.325,-0.144,-0.141,2.696,1.605,-0.04,1.898,0.201,0.424,-0.268,-0.033,-0.207,1.628,-0.434,-0.071,-0.064,0.089,-0.505,-0.133,0.11,1.182,-0.333,-0.388,-0.013,-0.207,-0.231,-0.052,-0.038,0.035,1.946,-0.002,-0.191,-0.193,0.052,-0.32,2.422,0.282,-0.43,-0.144,0.101,0.294,1.743,-0.034,0.021
17,35014559,35017699,4761,NEUROD2,-0.054,-0.027,1.611,1.793,1.972,1.606,0.376,1.965,-0.203,1.862,0.242,-0.07,-0.147,-0.103,0.009,0.009,0.096,-0.194,0.456,1.796,1.521,1.584,-0.044,-0.121,0.172,-0.199,-0.316,2.135,-0.411,1.819,0.325,-0.144,-0.141,2.696,1.605,-0.04,1.898,0.201,0.424,-0.268,-0.033,-0.207,1.628,-0.434,-0.071,-0.064,0.089,-0.505,-0.133,0.11,1.523,-0.333,-0.388,0.769,-0.207,-0.231,-0.052,-0.038,0.035,1.946,-0.002,-0.191,-0.193,0.052,-0.32,2.422,0.282,-0.43,-0.144,0.101,0.294,2.132,-0.034,0.021
17,35036705,35046404,84152,PPP1R1B,-0.054,-0.027,1.611,1.793,1.972,1.606,0.376,1.965,-0.203,1.862,0.242,-0.07,-0.147,-0.103,0.009,0.009,0.096,-0.194,0.456,1.796,1.521,1.584,-0.044,-0.121,0.172,-0.199,-0.316,2.135,-0.411,1.819,0.325,-0.144,-0.141,2.696,1.605,-0.04,1.898,0.201,0.424,-0.268,-0.033,-0.207,1.628,-0.434,-0.071,-0.064,0.089,-0.505,-0.133,0.11,1.523,-0.333,-0.388,0.769,-0.207,-0.231,-0.052,-0.038,0.035,1.946,-0.002,-0.191,-0.193,0.052,-0.32,2.422,0.282,-0.43,-0.144,0.101,0.294,2.132,-0.034,0.021
17,35046938,35073263,10948,STARD3,-0.054,-0.027,1.611,1.793,1.972,1.606,0.376,1.965,-0.203,1.862,0.242,-0.07,-0.147,-0.103,0.009,0.009,0.096,-0.194,0.456,1.796,1.521,1.584,-0.044,-0.121,0.172,-0.199,-0.316,2.135,-0.411,1.819,0.325,-0.144,-0.141,2.696,1.605,-0.04,1.898,0.201,0.424,-0.268,-0.033,-0.207,1.628,-0.434,-0.071,-0.064,0.089,-0.505,-0.133,0.11,1.523,-0.333,-0.388,0.769,-0.207,-0.231,-0.052,-0.038,0.035,1.946,-0.002,-0.191,-0.193,0.052,-0.32,2.422,0.282,-0.43,-0.144,0.101,0.294,2.132,-0.034,0.021
17,35075125,35076333,8557,TCAP,-0.054,-0.027,1.611,1.793,1.972,1.606,0.376,1.965,-0.203,1.862,0.242,-0.07,-0.147,-0.103,0.009,0.009,0.096,-0.194,0.456,1.796,1.521,1.584,-0.044,-0.121,0.172,-0.199,-0.316,2.135,-0.411,2.251,0.325,-0.144,-0.141,2.696,1.605,-0.04,1.898,0.201,0.424,-0.268,-0.033,-0.207,1.628,-0.434,-0.071,-0.064,0.089,-0.505,-0.133,0.11,1.523,-0.333,-0.388,0.769,-0.207,-0.231,-0.052,-0.038,0.035,1.946,-0.002,-0.191,-0.193,0.052,-0.32,2.422,0.282,-0.43,-0.144,0.101,0.294,2.132,-0.034,0.021
17,35078033,35080254,5409,PNMT,-0.054,-0.027,1.611,1.793,1.972,1.606,0.376,1.965,-0.203,1.862,0.242,-0.07,-0.147,-0.103,0.009,0.009,0.096,-0.194,0.456,1.796,1.521,1.584,-0.044,-0.121,0.172,-0.199,-0.316,2.135,-0.411,2.251,0.325,-0.144,-0.141,2.696,1.605,-0.04,1.898,0.201,0.424,-0.268,-0.033,-0.207,1.628,-0.434,-0.071,-0.064,0.089,-0.505,-0.133,0.11,1.523,-0.333,-0.388,0.769,-0.207,-0.231,-0.052,-0.038,0.035,1.946,-0.002,-0.191,-0.193,0.052,-0.32,2.422,0.282,-0.43,-0.144,0.101,0.294,2.132,-0.034,0.021
17,35080901,35097836,93210,PERLD1,-0.054,-0.027,1.611,1.793,1.972,1.606,0.376,1.965,-0.203,1.862,0.242,-0.07,-0.147,-0.103,0.009,0.009,0.096,-0.194,0.456,1.796,1.521,1.584,-0.044,-0.121,0.172,-0.199,-0.316,2.135,-0.411,2.251,0.325,-0.144,-0.141,2.696,1.605,-0.04,1.898,0.201,0.424,-0.268,-0.033,-0.207,1.628,-0.434,-0.071,-0.064,0.089,-0.505,-0.133,0.11,1.523,-0.333,-0.388,0.769,-0.207,-0.231,-0.052,-0.038,0.035,1.946,-0.002,-0.191,-0.193,0.052,-0.32,2.422,0.282,-0.43,-0.144,0.101,0.294,2.132,-0.034,0.021
17,35097919,35138441,2064,ERBB2,-0.054,-0.027,2.766,2.675,1.972,2.606,0.376,1.965,-0.203,1.862,0.242,-0.07,-0.147,-0.103,0.009,0.009,0.096,-0.194,0.456,2.145,1.521,1.584,0.238,-0.121,0.172,-0.199,-0.316,2.135,-0.411,3.272,0.325,-0.144,-0.141,2.696,1.905,-0.04,2.134,0.755,0.424,-0.268,-0.033,-0.207,1.628,-0.434,-0.071,-0.064,0.089,-0.505,-0.133,0.11,1.523,-0.333,-0.388,0.769,-0.207,-0.231,-0.052,-0.038,0.035,1.946,-0.002,-0.191,-0.193,0.052,-0.32,3.576,0.282,-0.43,-0.144,0.101,0.294,2.132,-0.034,0.021
17,35138935,35140314,84299,C17orf37,-0.054,-0.027,2.495,1.984,1.972,1.812,0.376,1.965,-0.203,1.862,0.242,-0.07,-0.147,-0.103,0.009,0.009,0.096,-0.194,0.456,2.145,1.521,1.584,0.238,-0.121,0.172,-0.199,-0.316,2.135,-0.411,2.277,0.325,-0.144,-0.141,2.696,1.905,-0.04,2.134,0.755,0.424,-0.268,-0.033,-0.207,1.628,-0.434,-0.071,-0.064,0.089,-0.505,-0.133,0.11,1.523,-0.333,-0.388,0.769,-0.207,-0.231,-0.052,-0.038,0.035,1.946,-0.002,-0.191,-0.193,0.052,-0.32,2.455,0.282,-0.43,-0.144,0.101,0.294,2.132,-0.034,0.021
17,35147713,35157064,2886,GRB7,-0.054,-0.027,1.528,1.984,1.972,1.812,0.376,1.965,-0.203,1.862,0.242,-0.07,-0.147,-0.103,0.009,0.009,0.096,-0.194,0.456,2.145,1.521,1.584,-0.044,-0.121,0.172,-0.199,-0.316,2.135,-0.411,2.277,0.325,-0.144,-0.141,2.696,1.905,-0.04,2.134,0.755,0.424,-0.268,-0.033,-0.207,1.628,-0.434,-0.071,-0.064,0.089,-0.505,-0.133,0.11,1.523,-0.333,-0.388,0.769,-0.207,-0.231,-0.052,-0.038,0.035,1.946,-0.002,-0.191,-0.193,0.052,-0.32,2.455,0.282,-0.43,-0.144,0.101,0.294,2.132,-0.034,0.021
17,35174724,35273967,22806,ZNFN1A3,-0.054,-0.027,-0.316,0.329,-0.26,-0.365,0.376,1.965,-0.203,1.862,0.242,-0.07,-0.147,-0.103,0.009,0.009,0.096,-0.194,0.456,2.145,1.521,1.584,-0.044,-0.121,-0.423,-0.199,-0.316,2.135,-0.411,2.277,0.325,-0.144,0.43,2.696,1.905,-0.04,-0.698,0.207,0.424,-0.268,-0.033,-0.207,1.628,-0.434,-0.071,-0.064,0.089,-0.505,-0.133,0.11,1.523,-0.333,-0.388,0.769,-0.207,-0.231,-0.052,-0.038,0.035,1.946,-0.002,-0.191,-0.193,0.052,-0.32,2.455,0.282,-0.43,-0.144,0.101,0.294,2.132,-0.034,0.021
17,35277995,35287675,124626,ZPBP2,-0.054,-0.027,-0.316,-0.325,-0.26,-0.365,0.376,1.965,-0.203,1.862,0.242,-0.07,-0.147,-0.103,0.009,0.009,0.096,-0.194,0.456,2.145,1.12,1.584,-0.044,-0.121,-0.423,-0.199,-0.316,-0.461,-0.411,-0.318,0.325,-0.144,0.43,2.696,1.905,-0.04,-0.698,0.207,0.424,-0.268,-0.033,-0.207,1.628,-0.434,-0.071,-0.064,0.089,-0.505,-0.133,0.11,1.523,-0.333,-0.388,0.769,-0.207,-0.231,-0.052,-0.038,0.035,1.946,-0.002,-0.191,-0.193,0.052,-0.32,-0.363,0.282,-0.43,-0.144,0.101,0.294,2.132,-0.034,0.021
17,35314374,35327319,55876,GSDML,-0.054,-0.027,-0.316,-0.325,-0.26,-0.365,0.376,1.965,-0.203,1.862,0.242,-0.07,-0.147,-0.103,0.009,0.009,0.096,-0.194,0.456,1.624,1.12,1.584,0.482,-0.121,-0.423,-0.199,-0.316,-0.461,-0.411,-0.318,0.325,-0.144,0.43,2.696,1.495,-0.04,-0.698,0.207,0.424,-0.268,-0.033,-0.207,1.628,-0.434,-0.071,-0.064,0.089,-0.505,-0.133,0.11,1.523,-0.333,-0.388,0.769,-0.207,-0.231,-0.052,-0.038,0.035,1.946,-0.002,-0.191,-0.193,0.052,-0.32,-0.363,0.282,-0.43,-0.144,0.101,0.294,2.132,-0.034,0.021
17,36681089,36681613,85347,KRTAP9P1,-0.054,-0.027,-0.316,-0.325,-0.886,-0.365,-1.183,-1.304,-1.218,-1.258,-1.314,-0.202,0.706,-0.103,0.009,-1.477,0.096,-0.56,-0.751,-0.391,-0.389,-0.342,-0.394,-1.572,-1.506,0.575,-1.732,-0.461,0.346,-0.646,0.915,-1.553,-0.373,-0.782,0.407,-0.04,-0.698,-1.288,1.183,-1.97,-0.962,-1.631,0.578,-1.416,-0.071,-0.064,-1.687,-0.589,-0.133,-1.122,-1.452,-1.299,-1.634,-0.555,-0.207,-0.231,-1.09,-1.116,0.035,-0.938,-1.601,0.468,-1.484,0.06,0.276,-1.602,-0.892,-0.43,-1.419,0.101,-1.009,0.708,-1.293,-1.371
17,39659855,39663361,6466,SHCL1,-0.054,-0.027,-0.316,-0.306,-0.263,-0.365,0.37,-3.776,-0.191,-0.146,0.229,-0.093,-0.135,-0.103,0.009,0.012,0.096,-0.236,-0.362,-0.391,-0.378,-0.326,-0.399,0.186,0.39,-0.191,-0.301,-0.461,0.284,0.058,0.357,-0.119,-4.672,-0.149,-0.357,-0.586,-0.679,0.234,0.241,-0.253,-0.038,-0.189,-0.923,0.005,-0.071,-0.064,0.112,-0.126,-0.133,0.125,-0.12,-0.315,-0.344,-0.532,-0.163,-0.231,-0.003,-0.02,0.035,-0.576,0.006,-0.138,-0.114,0.06,-0.305,-0.354,0.334,-0.43,-0.139,0.101,0.301,0.082,0.011,0.023
17,40936221,40944080,644144,LOC644144,-0.054,-0.027,-0.316,0.032,-0.263,-0.365,0.37,-3.761,-0.191,-0.146,0.229,-0.098,-0.135,-3.329,0.009,0.012,0.096,-0.236,-0.008,-0.391,-0.378,-0.326,-0.399,0.186,0.396,-0.191,-0.301,-0.461,0.284,-0.355,0.135,-0.119,-2.93,-0.149,-0.357,-0.041,-0.679,0.234,0.236,-0.253,0.5,-0.189,-0.923,0.005,-0.071,-0.064,0.112,-0.126,-0.133,0.125,-0.12,-0.315,-0.344,0.004,-0.163,-0.231,-0.074,-2.628,0.035,-0.576,0.006,-0.138,0.22,0.06,-0.305,-0.354,0.334,-0.43,-3.028,0.101,0.301,0.082,0.011,0.023
17,40939723,40949271,55073,FLJ10120,-0.054,-0.027,-0.316,0.032,-0.263,-0.365,0.37,-3.761,-0.191,-0.146,0.229,-0.098,-0.135,-3.329,0.009,0.012,0.096,-0.236,-0.008,-0.391,-0.378,-0.326,-0.399,0.186,0.396,-0.191,-0.301,-0.461,0.284,-0.355,0.135,-0.119,-2.93,-0.149,-0.357,-0.041,-0.679,0.234,0.236,-0.253,0.5,-0.189,-0.923,0.005,-0.071,-0.064,0.112,-0.126,-0.133,0.125,-0.12,-0.315,-0.344,0.004,-0.163,-0.231,-0.074,-2.628,0.035,-0.576,0.006,-0.138,0.22,0.06,-0.305,-0.354,0.334,-0.43,-3.028,0.101,0.301,0.082,0.011,0.023
18,46810611,46860145,4089,SMAD4,-0.034,0.012,2.115,1.792,2.227,-0.366,0.013,-0.541,-0.881,0.086,-0.128,-0.147,-0.173,-0.12,-0.154,-0.458,-0.178,0.366,-0.42,-0.466,-0.938,-0.39,-0.422,-1.059,-0.444,0.428,2.935,-0.47,-0.437,-0.426,0.165,-0.773,-1.002,-0.497,-0.318,-0.803,-0.006,-0.454,-0.443,-0.217,-0.659,-0.028,-0.955,-0.461,-0.084,-0.048,-0.372,-0.556,-0.641,-0.525,-0.405,-0.548,-0.48,-0.031,-2.024,-0.224,-0.032,-0.276,-0.646,-0.56,-0.035,0.211,-0.147,-0.015,-0.168,-0.629,-0.367,-0.426,-0.793,-0.363,-0.615,-0.284,0.239,0.234
18,57631583,57711284,220441,RNF152,-0.034,0.012,-0.355,-0.398,-0.332,-0.366,0.013,-0.2,-0.881,0.086,-0.162,-2.938,-0.173,-0.12,-0.132,-0.458,-0.178,0.548,-3.4,-0.466,-0.959,-0.414,-0.422,-1.059,0.299,-0.247,-0.936,-0.47,-0.079,-0.426,0.101,-0.773,-1.002,-0.56,-0.318,-0.825,-0.058,-0.456,0.725,-0.217,-0.69,-0.028,-0.983,-0.461,-0.084,-0.048,-0.372,-0.556,-0.637,-1.075,-0.73,-0.548,-3.768,-0.031,-0.263,-0.248,-0.121,-0.362,-0.646,-0.216,-0.035,0.137,-0.198,-0.015,-0.16,-3.815,-0.028,-0.426,-0.793,-0.357,-0.615,-0.284,0.239,0.234
19,56838245,56844273,653723,LOC653723,-0.06,-0.013,0.303,0.311,-0.892,0.41,0.003,-0.12,-2.97,0.093,0.166,0.219,-0.166,-0.105,-0.014,-2.872,0.475,-0.22,0.266,0.316,-0.007,-0.897,-0.042,-0.004,0.152,0.408,-0.301,0.1,-3.66,-2.52,-0.328,0.255,0.478,-2.716,0.352,0.584,-0.072,-3.227,0.016,0.14,-2.17,0.287,-2.138,-0.019,0.152,-0.047,-0.065,-0.177,-0.637,0.119,0.029,0.182,-2.638,-0.021,-0.161,0.142,-0.02,-2.76,0.037,0.052,-0.04,-0.159,-0.223,0.002,0.745,0.286,0.55,-0.401,-0.388,-2.62,-0.286,0.088,0.066,0.001
19,57992473,58016697,7576,ZNF28,-0.06,-0.013,0.473,0.311,0.312,0.41,0.003,-0.12,0.172,0.093,0.166,0.219,-0.166,-0.105,-0.014,-0.027,0.1,-0.22,0.266,0.316,-0.007,-0.006,-0.042,-0.004,0.152,0.408,-0.301,0.1,0.43,-0.364,-0.328,-3.273,0.478,0.334,0.352,0.584,-0.072,-0.376,0.016,-3.578,-3.685,0.287,0.038,-0.019,0.152,-0.047,-0.093,-0.177,-0.641,0.119,0.029,0.182,0.234,-0.021,-0.161,-0.752,-0.02,-0.338,0.037,-0.158,-0.104,-0.159,-0.223,0.002,0.457,0.286,0.55,-0.401,0.917,-0.38,-0.286,0.088,0.066,0.001
19,60970664,60982055,646663,LOC646663,-0.06,-0.013,-0.018,-2.711,-0.316,-0.837,0.003,-0.119,-2.47,0.093,-3.962,0.219,0.342,-0.105,-0.014,-0.027,0.1,-0.22,-0.403,0.316,-0.007,-0.006,-0.042,-0.004,0.152,0.408,-0.301,0.1,-2.377,-0.364,-0.328,0.28,0.594,-2.083,0.955,0.593,-0.072,-0.392,0.016,0.095,-0.268,-2.244,-2.111,-0.019,0.152,-0.047,0.041,-0.177,0.619,0.119,0.189,0.666,0.234,-0.021,0.182,0.117,-0.02,0.001,0.037,0.042,-2.396,-0.159,-0.223,0.002,-1.959,-2.285,0.55,-0.401,0.802,-4,-0.286,0.078,0.066,0.001
2,106248027,106271992,402095,LOC402095,0.075,0.03,0.011,0.013,-0.228,0.004,0.006,0.099,0.191,-0.053,-0.097,-0.173,0.053,-0.734,-0.086,-0.353,-0.161,0.119,-0.38,-0.11,-0.058,-0.019,-0.406,-0.004,-0.06,-0.202,-3.918,-3.632,-0.071,-3.064,0.059,-4.13,0.029,0.046,0.06,-0.061,-0.082,-0.404,-0.742,0.019,-3.106,-0.01,0.541,0.082,-3.027,-2.157,0.05,0.096,-0.16,-4.366,0.429,-0.033,0.247,-3.944,-0.21,-3.778,-0.057,-3.359,0.022,0.067,-0.475,0.161,-0.168,-0.029,-0.096,0.009,0.031,0.151,0.03,0.028,-3.42,-0.806,-0.066,-0.373
20,1491568,1548630,10326,SIRPB1,-0.729,-0.802,-0.829,-0.315,-0.263,-0.358,-0.723,-0.75,-0.607,2.227,0.526,0.315,1.759,0.258,1.463,-0.407,0.09,1.917,1.647,-0.436,-0.36,-0.335,1.721,-0.904,0.894,2.387,1.953,1.354,-1.052,0.597,-0.361,-0.126,-1.977,0.541,-0.649,-0.38,1.334,-0.347,1.928,1.238,1.298,-0.928,0.015,-0.394,0.252,-0.054,-0.741,-0.577,0.127,-0.66,-0.878,1.641,-0.378,2.051,0.127,0.152,1.335,-0.467,-0.768,0.42,1.362,-0.216,-0.546,1.408,1.834,1.423,0.043,0.152,-0.677,-0.354,0.056,-0.282,-3.013,-2.989
20,13924269,15981842,140733,C20orf133,0.348,0.446,-0.33,-0.361,-0.263,-0.358,0.013,0.478,-2.773,-3.412,0.535,-2.106,0.039,0.258,-0.085,0.313,0.09,-0.24,-0.391,-1.967,-2.627,-2.737,-2.513,-0.023,0.165,0.439,0.29,-0.718,-3.747,0.552,-0.428,-0.752,-3.208,-2.113,-3.5,-2.389,-0.706,0.214,0.422,-3.787,-0.49,0.305,-2.893,0.243,0.252,-0.054,0,-0.409,-0.69,0.143,-3.628,0.252,-2.608,0.31,-0.253,-0.864,-2.836,0.327,0.048,0.582,-0.007,-0.578,0.868,0.028,0.109,-0.267,0.024,0.521,-0.782,-0.354,-0.292,-3.619,-0.277,-0.375
20,14686209,14686702,140758,RPS10P2,0.348,0.446,-0.33,-0.361,-0.263,-0.358,0.013,0.304,-2.773,0.122,0.437,-0.355,0.039,0.258,-0.013,0.313,0.09,-0.24,-0.391,-0.476,-2.627,-2.737,-1.204,-0.023,0.165,0.439,-0.04,-0.052,-0.073,0.435,-0.428,-0.752,-0.026,-0.084,0.05,-0.604,0.006,-0.007,0.422,-0.08,-0.49,0.305,-1.02,0.168,0.252,-0.054,0,0.109,0.067,0.143,-1.165,0.252,-2.608,0.157,-0.253,-0.864,-0.753,0.327,0.048,-0.255,-0.007,-0.374,0.868,0.028,0.109,0.056,0.024,0.152,-0.133,-0.354,-0.292,-0.31,-0.202,-0.375
20,51993924,52120490,8537,BCAS1,0.348,0.386,-0.003,-0.023,-0.022,-0.019,0.013,1.068,-2.242,2.02,0.565,0.515,0.342,0.249,-0.03,-0.052,0.076,0.101,0.832,1.304,1.34,1.219,1.237,0.262,0.13,-0.213,-0.562,1.117,1.015,0.237,0.199,0.233,0.336,0.288,0.274,0.352,0.414,0.268,0.169,0.238,0.324,0.305,0.634,2.058,0.252,-0.06,0.018,2.247,0.637,0.143,0.83,0.252,0.232,0.166,0.149,0.4,-0.119,-1.774,-1.199,1.244,-0.007,-0.184,0.683,0.028,0.371,0.333,0.855,0.166,-0.137,-1.738,0.32,0.853,0.395,0.305
21,43773500,43903802,11077,HSF2BP,-0.053,-0.008,-0.009,0.046,-0.265,-0.03,0.006,-4.25,0.188,-0.24,-0.037,0.118,-0.133,-2.428,0.016,-0.079,0.076,-2.119,-0.029,-0.438,-4.226,-3.062,0.014,-0.011,-3.725,0.175,-0.238,0.057,-3.503,-2.536,0.053,-0.103,-0.267,-0.099,0.613,0.096,0.02,0.218,-3.535,-0.041,0.03,-4.092,0.059,0.46,-0.092,-0.068,-0.24,0.412,0.344,-4.152,-0.443,0.138,-3.342,-0.034,-2.052,0.165,-0.036,0.189,0.048,-3.431,-3.838,0.422,0.48,0.013,0.203,-0.053,-3.924,-0.418,0.039,0.214,0.058,-2.736,-0.417,-0.377
21,43795547,43795951,54027,RPL31P1,-0.053,-0.008,-0.009,0.046,-0.265,-0.03,0.006,-4.25,0.188,-0.24,-0.037,0.118,-0.133,-2.428,0.016,-0.079,0.076,-2.119,-0.029,-0.438,-4.226,-3.062,0.014,-0.011,-3.725,0.175,-0.238,0.057,-3.503,-2.536,0.053,-0.103,-0.267,-0.099,0.613,0.096,0.02,0.218,-3.535,-0.041,0.03,-4.092,0.059,0.46,-0.092,-0.068,-0.24,0.412,0.344,-4.152,-0.443,0.138,-3.342,-0.034,-2.052,0.165,-0.036,0.189,0.048,-3.431,-3.838,0.422,0.48,0.013,0.203,-0.053,-3.924,-0.418,0.039,0.214,0.058,-2.736,-0.417,-0.377
22,16423183,16453647,83733,SLC25A18,-0.05,-0.01,-0.288,-0.288,-0.12,-0.334,-0.01,-0.086,-0.197,-0.134,-0.467,2.812,2.762,2.502,0.02,-0.245,0.05,0.149,-0.342,-0.432,-0.369,-0.357,2.77,0.131,0.5,-0.216,-0.288,-0.012,-0.384,0.122,0.018,-0.116,0.026,-0.136,2.543,0.301,0.018,0.217,0.723,0.172,-0.205,0.157,-0.305,-0.404,-0.061,-0.079,2.821,1.888,-0.131,-0.122,0.062,0.04,-0.403,0.328,-0.175,-0.179,2.54,-0.256,0.055,-0.202,0.003,-0.752,2.554,0.004,-0.206,0.227,0.058,-0.428,-0.3,0.214,-0.32,-0.289,0.37,0.095
22,19276274,19312870,645280,LOC645280,-0.05,-0.01,0.215,-0.288,-0.12,-0.334,-0.014,-0.082,-3.43,-0.134,0.64,-0.12,-0.346,-0.663,0.02,-0.245,0.05,-0.163,-0.342,-0.351,-0.312,-0.308,0.213,0.131,-2.895,-0.216,-0.288,-0.012,-0.384,0.122,0.049,-0.092,0.026,0.799,-0.376,0.041,0.018,0.217,0.746,-4.462,-0.205,0.157,-0.305,-0.404,-0.061,-0.079,-0.252,-0.139,-0.131,-0.122,0.062,0.04,-0.382,0.328,-0.175,-0.179,0.042,-0.256,0.055,-0.202,0.003,0.226,-0.148,0.004,-0.19,0.227,0.174,-0.431,-0.31,0.214,-0.302,0.343,-4.17,-3.988
22,20710659,21595085,3535,IGL@,0.476,0.386,-0.243,1.377,0.188,-2.169,-1.694,-1.159,-3.74,0.248,-2.86,-0.961,-0.385,-0.697,0.601,-0.294,-3.126,0.222,-0.354,-0.394,-0.351,-0.355,-2.948,-1.947,0.818,-0.216,1.28,-0.012,-0.384,0.122,0.361,-0.092,-2.723,0.714,-3.047,-0.047,0.376,0.611,0.439,0.55,-0.262,0.535,1.609,-0.404,0.239,0.267,-0.324,-0.171,0.179,-0.122,0.659,0.396,-0.382,0.716,-0.175,0.235,0.637,-0.256,0.488,-1.059,-1.672,0.226,-0.148,0.565,-0.19,0.383,-0.163,-0.443,-3.338,0.579,-3.43,0.69,0.757,0.514
22,22696752,22703873,391322,LOC391322,-2.171,-2.39,-0.322,-0.341,-0.189,-0.362,-0.028,-0.113,-2.145,-0.163,-0.475,-0.154,-1.449,-0.095,0.029,-0.294,0.018,-0.219,-3.571,-3.41,-2.368,-3.6,0.211,0.538,0.396,-1.881,0.567,-0.012,-2.171,-1.751,0.023,-2.458,-1.393,0.585,-2.246,-0.05,-0.007,0.204,0.225,-2.156,-0.262,-0.38,-0.382,-0.404,-1.38,-4.142,-2.204,-0.171,-0.172,-2.299,0.06,0.027,-0.382,0.314,-1.669,-0.224,0.008,-2.039,-2.321,-0.226,-2.21,-1.972,-0.148,0.004,-0.19,0.187,-0.163,-0.443,-2.165,-1.966,-1.872,-0.316,0.377,0.08
22,22706141,22714231,2952,GSTT1,-2.171,-2.39,-0.322,-0.341,-0.189,-0.362,-0.028,-0.113,-2.145,-0.163,-0.475,-0.154,-1.449,-0.095,0.029,-0.294,0.018,-0.219,-3.571,-3.41,-2.368,-3.6,0.211,0.538,0.396,-1.881,0.567,-0.012,-2.171,-1.751,0.023,-2.458,-1.393,0.585,-2.246,-0.05,-0.007,0.204,0.225,-2.156,-0.262,-0.38,-0.382,-0.404,-1.38,-4.142,-2.204,-0.171,-0.172,-2.299,0.06,0.027,-0.382,0.314,-1.669,-0.224,0.008,-2.039,-2.321,-0.226,-2.21,-1.972,-0.148,0.004,-0.19,0.187,-0.163,-0.443,-2.165,-1.966,-1.872,-0.316,0.377,0.08
22,22715944,22731893,653399,LOC653399,-2.171,-2.39,-0.322,-0.341,-0.189,-0.362,-0.028,-0.113,-2.145,-0.163,-0.475,-0.154,-1.449,-0.736,0.029,-0.294,0.018,-0.219,-0.394,-0.452,-2.368,-0.393,0.211,0.538,0.396,-1.881,0.567,-0.012,-2.171,-1.751,0.023,-2.458,-1.393,0.585,-2.246,-0.05,-0.007,0.204,0.225,-2.156,-0.262,-0.38,-0.382,-0.404,-1.38,-0.094,-2.204,-0.171,-0.172,-2.299,0.06,0.027,-0.382,0.314,-1.669,-0.224,0.008,-2.039,-2.321,-0.226,-2.21,-1.972,-0.148,0.004,-0.19,0.187,-0.163,-0.443,-2.165,-1.966,-1.872,-0.316,0.377,0.08
22,22726205,22731880,653403,LOC653403,-2.171,-2.39,-0.322,-0.341,-0.189,-0.362,-0.028,-0.113,-2.145,-0.163,-0.475,-0.154,-1.449,-0.736,0.029,-0.294,0.018,-0.219,-0.394,-0.452,-0.393,-0.393,0.211,0.15,0.396,-1.881,0.567,-0.012,-2.171,0.074,0.023,-2.458,-0.193,0.117,-2.246,-0.05,-0.007,0.204,0.225,-2.156,-0.262,-0.38,-0.382,-0.404,-1.38,-0.094,-2.204,-0.171,-0.172,-0.151,0.06,0.027,-0.382,0.314,-1.669,-0.224,0.008,-0.306,0.038,-0.226,-2.21,-1.972,-0.148,0.004,-0.19,0.187,-0.163,-0.443,-0.323,-1.966,-0.327,-0.316,0.377,0.08
22,31999063,32646410,9215,LARGE,-0.066,-0.019,-0.322,-0.424,-0.189,-0.362,-0.004,-0.142,-3.874,-0.161,-0.475,-0.154,-0.38,-3.398,-0.154,-0.555,0.018,-0.287,-0.394,-0.491,-0.393,-0.393,0.211,0.078,0.287,-0.231,0.567,-0.012,-0.425,0.074,0.022,-0.114,-0.193,-0.483,-0.368,0.89,-0.007,-0.549,-0.439,0.167,-2.662,-3.103,-0.385,-0.404,-0.144,-0.094,-0.452,-0.239,-0.172,0.115,-0.013,0.027,-0.464,0.314,-0.219,-0.889,-0.062,-3.241,0.038,-0.226,0,-0.182,-0.306,0.004,0.114,-2.398,-0.065,-0.443,-2.538,0.635,-0.327,-2.579,0.369,0.08
22,43489133,43637328,553158,LOC553158,-0.058,-0.019,-0.296,-0.298,-0.189,-0.362,-0.003,-0.092,-0.2,-0.161,-0.475,-0.154,-0.38,-0.685,0.014,0.05,0.018,-0.226,-0.376,-0.418,-0.364,-0.371,-0.189,0.141,0.287,-0.231,0.306,-0.012,-0.391,0.092,0.022,-0.114,-0.193,-0.279,-0.369,0.328,0.02,0.111,0.432,-4.011,-0.24,0.16,-0.289,-0.404,-0.069,-0.094,-0.287,-0.52,-3.357,-3.547,-0.223,0.027,-0.38,0.314,-0.219,-0.211,-0.014,-0.251,0.038,-0.216,0,-0.182,-0.152,0.004,-0.056,0.51,0.075,0.15,0.009,0.188,-0.327,-2.757,-0.431,-0.368
3,16191160,16245166,117248,GALNTL2,-0.032,0.03,0.196,0.277,0.301,0.225,0.008,-0.153,0.157,-0.037,-0.153,0.023,0.136,-0.1,-0.092,-0.265,0.075,-0.244,-0.015,-2.228,-2.654,-3.005,-0.156,0.285,-3.222,-2.791,0.09,0.098,-0.031,0.19,0.141,-0.145,0.058,-0.028,-0.314,0.328,-0.269,0.178,0.002,0.741,-0.271,-3.463,0.26,0.551,-0.109,-0.078,-3.582,0.212,-0.165,0.123,-0.208,-0.457,0.54,-0.058,-0.229,0.64,-0.105,0.111,0.033,-0.248,-0.08,-0.132,-0.101,0.017,-0.064,-0.361,-0.361,0.158,0.216,0.017,0.05,0.062,0.009,0.298
3,59710076,61212164,2272,FHIT,-0.032,0.036,-0.896,-4.099,-0.907,1.138,0.008,-0.512,-0.843,-0.527,-0.136,-1.144,-3.116,-0.1,-0.088,-0.357,-0.552,-0.256,-0.02,-0.5,-0.205,-0.37,-2.373,0.538,-0.124,-0.233,-0.319,0.088,-3.014,-0.436,-0.007,-2.443,-0.429,-0.127,-2.869,-0.262,0.03,-1.066,-0.422,-0.748,-0.271,0.159,-1.689,-0.429,-0.109,-0.104,-1.074,-0.566,-0.69,-0.584,-0.186,-1.065,-2.842,-0.058,-0.229,-0.22,-2.548,-0.662,0.033,-0.613,-2.552,-0.183,0.859,0.017,-0.265,-0.361,-2.101,0.164,0.266,0.492,-0.31,-0.272,-0.059,-0.371
3,176059805,177006122,254827,NAALADL2,-0.032,-0.671,1.544,0.022,1.118,0.869,0.008,-3.295,0.245,0.18,-0.944,-1.94,0.057,-0.1,-0.073,0.556,0.062,-0.24,0.266,0.118,0.235,0.031,-0.018,0.323,0.02,-0.23,0.113,0.076,0.496,0.212,0.336,0.196,0.59,0.063,0.315,-0.123,-2.271,0.453,0.269,0.409,1.419,0.28,0.17,0.688,-0.154,-0.087,-0.77,0.56,-1.384,-0.058,-0.006,0.455,-2.874,0.315,0.128,0.477,-0.919,0.309,0.038,-0.573,-0.044,0.167,-0.153,0.005,-0.156,0.21,-0.704,-0.454,0.469,0.523,0.722,0.061,-0.034,0.008
4,69085497,69116840,7367,UGT2B17,-1.793,-1.705,-1.057,-1.314,-1.164,-1.295,0.01,-0.141,-0.225,-0.182,-0.133,-0.365,-1.398,-0.099,-1.503,0.418,0.075,-0.263,-1.315,0.154,-0.389,-1.512,-0.001,-1.995,0.185,-0.225,-0.258,0.075,-1.975,0.354,-1.008,-0.145,0.018,-0.167,-0.398,-0.088,-1.926,-0.067,0.394,-0.254,-1.329,-0.291,-0.38,-0.072,-0.126,-0.071,0.068,-0.197,-0.166,-0.37,-0.316,0.435,0.038,-0.051,-0.247,-1.531,-0.112,0.256,0.038,-0.232,0.373,0.456,-0.486,-0.171,0.975,-0.063,-0.064,-0.032,-1.543,0.444,-1.43,-1.564,-0.039,0.527
4,70180806,70195357,54490,UGT2B28,-0.022,0.036,-1.639,-1.938,-3.405,-4.195,-2.183,-0.141,-0.225,-0.182,-0.133,-0.446,-0.104,-0.099,-0.072,-0.809,0.075,-0.263,0.286,-0.098,-0.389,-0.36,-0.001,-0.377,-0.317,-0.225,-0.258,-0.358,-2.842,-0.056,-0.026,-2.173,-1.756,-0.167,-0.772,-0.088,-0.056,-0.067,-0.127,-0.254,-1.973,-0.291,-0.38,-0.072,-0.126,-0.071,-0.984,-0.197,-0.166,-0.071,-0.759,-0.057,-0.463,-0.051,-0.247,-0.874,-0.112,-0.434,0.038,-0.232,-0.063,0.456,0.232,-0.171,1.059,-0.063,-0.859,-0.032,-0.19,0.032,-0.316,-0.326,-0.039,0.036
4,162524499,163304636,56884,FSTL5,-0.022,0.053,-0.328,-0.356,-0.282,-0.364,-0.003,-0.202,0.738,-0.174,-3.627,-0.378,-0.092,-0.094,-0.143,-0.999,0.066,-1.678,-3.203,-0.107,-0.022,0.268,-0.024,0.003,-0.441,-0.227,-0.329,-3.392,-0.466,-0.032,-0.425,-0.143,0.124,-0.241,0.089,-0.09,-0.051,-1.066,-0.023,-0.254,0.072,-0.291,-0.384,0.035,-0.126,-0.071,-3.566,-0.206,-0.168,-1.14,0.116,0.17,-2.551,-0.052,-0.244,-0.891,-0.105,-0.46,0.037,-0.234,-0.103,-0.225,0.382,-0.171,-0.17,-0.079,-0.008,-0.031,-3.276,0.04,-0.307,-0.314,-0.04,0.033
4,172970735,174199279,442117,LOC442117,-0.022,0.053,-0.328,-4.446,-3.225,-0.364,0.015,-0.202,-0.243,-0.174,-1.788,-0.878,-3.143,-0.094,-0.143,-1.007,0.066,-0.284,-0.412,-0.106,-0.022,0.268,-1.797,-1.931,-0.432,-0.227,-2.15,-1.141,-0.466,-0.032,-0.425,-1.806,0.124,0.783,-1.455,-0.09,-0.051,-1.049,-0.029,-0.254,-1.874,-0.291,-0.384,0.035,-0.126,-0.071,-0.356,-0.206,1.777,-1.562,0.116,0.17,-0.454,-0.052,-0.244,-0.891,-0.105,-2.432,0.037,-0.234,-0.052,-1.502,-2.091,-0.171,-0.178,-1.975,-0.008,-0.031,-1.681,0.04,-0.307,-0.324,-0.04,0.033
5,175400054,175402481,645532,LOC645532,0.329,0.028,-0.33,-0.337,-0.261,-0.349,0.007,0.125,0.185,0.108,0.164,0.226,0.174,-0.094,-0.023,-0.222,0.439,0.145,-0.405,-0.025,0.237,0.019,-0.042,0.123,0.797,-0.233,0.118,-0.189,-0.009,0.016,0.292,-0.155,0.284,-0.236,0.039,-0.318,0.375,0.581,-0.019,-0.26,0.148,0.356,0.032,0.244,0.207,-0.082,-2.026,-2.168,0.414,0.366,-0.158,0.3,0.539,-0.052,0.421,0.453,-0.016,0.05,-2.547,0.033,0.651,0.474,-0.195,0.037,-2.549,0.25,0.037,0.044,0.218,0.289,0.053,0.061,-2.489,-3.192
5,180340987,180342217,646227,LOC646227,0.329,-0.005,-0.33,-0.337,-0.261,-0.349,0.007,-2.69,0.202,0.102,0.164,0.226,0.174,-0.094,-0.002,-0.222,-0.061,0.145,0.405,0.463,0.237,0.019,-0.042,-1.058,-2.097,-1.775,0.118,-0.189,-1.061,0.016,0.292,-0.155,-1.532,1.382,0.039,-0.318,0.375,-2.287,-0.019,-0.26,0.148,0.33,0.488,0.264,0.207,-0.082,0.079,0.317,0.414,0.366,-0.158,0.3,-2.082,-1.661,0.421,0.453,-0.056,0.05,-2.368,-1.859,0.651,0.7,-0.195,0.037,-2.05,0.25,0.135,0.044,0.217,-1.967,0.053,0.104,-0.013,0.319
5,180348507,180366333,10917,BTNL3,0.329,-0.005,-0.33,-0.337,-0.261,-0.349,0.007,-2.69,0.202,0.102,0.164,0.226,0.174,-0.094,-0.002,-0.222,-0.061,0.145,0.405,0.463,0.237,0.019,-0.042,-1.058,-2.097,-1.775,0.118,-0.189,-1.061,0.016,0.292,-0.155,-1.532,1.382,0.039,-0.318,0.375,-2.287,-0.019,-0.26,0.148,0.33,0.488,0.264,0.207,-0.082,0.079,0.317,0.414,0.366,-0.158,0.3,-2.082,-1.661,0.421,0.453,-0.056,0.05,-2.368,-1.859,0.651,0.7,-0.195,0.037,-2.05,0.25,0.135,0.044,0.217,-1.967,0.053,0.104,-0.013,0.319
6,32593129,32605984,3127,HLA-DRB5,-0.768,-1.233,0.006,0.023,0.028,-0.008,-0.372,-0.275,-0.505,1.173,-0.434,-1.003,0.218,-0.089,-0.064,0.358,-0.07,1.077,0.259,0.973,1.114,0.557,0.236,1.314,0.144,0.266,-0.275,0.042,0.994,0.89,0.164,-1.493,1.236,0.357,-0.479,-0.486,-1.159,-0.785,1.626,0.025,0.119,1.158,0.582,1.099,-0.124,-0.089,-0.872,0.857,0.848,-0.42,-1.807,0.066,-0.934,-0.056,0.359,0.415,-0.036,-0.037,-0.642,-0.222,1.217,1.776,1.042,0.017,-0.896,0.284,-0.019,0.127,1.208,-0.35,0.011,0.062,-0.222,-0.379
6,53991748,54239035,90523,C6orf142,-0.029,-0.681,1.256,0.918,0.631,0.679,0.009,1.173,-0.215,1.823,-0.608,1.949,0.224,0.961,-0.064,0.492,1.676,1.625,1.506,1.478,0.176,0.95,-1.745,2.071,1.548,-0.236,-0.367,1.675,-1.374,2.177,0.116,2.205,0.02,1.728,0.706,1.688,0.017,1.511,-0.392,2.174,0.172,0.149,-0.002,1.363,-0.124,-0.089,2.286,0.084,2.165,-0.129,0.392,0.246,-0.426,-0.056,2.279,-0.876,-0.127,-0.116,1.194,1.373,-0.004,0.473,2.372,0.017,1.813,0.346,0.144,2.312,-2.114,-0.35,2.116,0.062,-0.222,-0.379
6,72653448,73167137,22999,RIMS1,-0.029,-0.656,0.25,0.318,0.401,0.302,0.009,-0.208,-0.243,0.001,-0.619,-0.508,-2.64,-0.1,-0.064,0.102,-0.563,-0.261,0.274,-2.124,-2.475,-3.017,0.163,0.064,-0.083,-0.233,1.122,0.08,-3.083,-0.036,-0.194,-0.169,0.02,-0.056,-0.507,-0.125,0.013,0.423,0.686,-0.981,0.132,-0.047,-0.348,-0.377,-0.124,-0.089,-0.009,0.011,-0.046,-0.129,0.41,0.231,-0.474,0.284,0.355,-0.216,-0.127,-0.116,-0.666,-0.619,-0.002,-2.669,-0.217,0.017,-2.44,0.01,-0.147,0.127,0.226,-0.348,-0.315,0.062,-0.222,-0.379
6,126144000,126293950,135112,NCOA7,-0.029,-0.662,0.254,0.329,0.374,0.271,0.006,0.125,-0.209,0.029,-0.569,-0.095,-0.227,-0.105,-0.036,-3.728,-0.558,-0.247,0.289,-0.13,-0.077,-0.443,0.163,0.19,0.183,-0.229,0.04,0.072,-0.438,-0.062,-0.175,-0.137,0.025,-0.043,-0.452,0.832,0.004,0.244,0.306,-0.24,0.126,-0.049,-0.386,0.201,-0.125,-0.083,-0.307,0.071,-0.248,-0.13,0.144,0.249,0.556,0.294,-3.369,-3.591,-0.104,-0.102,-0.651,0.044,0.015,0.161,-0.195,0.027,-0.227,-0.001,-0.147,0.219,0.226,-0.356,-0.325,0.062,-0.454,0.015
6,152170379,152466099,2099,ESR1,-0.029,-0.662,-0.03,0.005,0.081,-0.02,0.006,0.125,-0.209,-0.415,-0.507,-0.091,-0.227,-0.117,-0.086,-0.362,-0.558,-3.991,0.293,-0.13,-0.482,-0.41,0.163,0.047,0.167,-0.231,0.04,0.076,0.336,-0.062,0.157,-0.139,-0.56,-0.084,-0.452,0.532,0.004,-0.42,-4.299,-0.261,0.126,-0.076,-0.375,0.251,-0.125,-0.083,-0.307,0.236,-0.248,-0.118,0.237,0.249,0.144,-0.704,0.121,-0.249,-0.104,-0.1,-0.651,0.044,-0.042,0.161,-0.195,0.027,-0.226,-0.001,-0.147,0.135,0.226,-0.356,-0.325,0.062,-0.454,0.015
7,39012933,39470915,11281,POU6F2,-0.031,0.035,0.323,0.309,0.52,0.449,0.01,0.649,0.2,0.468,0.372,-2.998,-0.356,0.252,-3.163,-0.304,0.082,0.109,-2.543,-0.505,-0.391,-0.652,-0.037,-0.094,-0.437,0.427,0.098,0.154,0.256,-0.078,-0.166,-0.094,0.092,0.559,0.657,0.197,0.027,-0.399,-0.026,0.566,0.329,0.253,-0.121,0.141,0.137,-0.078,0.299,-0.291,0.406,0.104,0.17,0.191,0.226,-0.085,0.369,-0.226,0.296,0.192,0.032,0.578,-0.01,0.431,-0.201,-0.027,0.546,-1.934,-2.616,0.509,0.126,0.277,0.315,0.335,0.558,0.36
7,141342148,141453016,8972,MGAM,-0.03,0.035,-0.848,-0.956,-0.843,-0.669,0.006,-2.204,0.186,0.355,0.322,-0.135,-0.104,0.264,-0.084,-0.35,0.422,0.315,-0.031,0.13,-0.295,-0.144,0.241,0.032,0.042,0.426,0.662,-0.217,0.305,0.402,-0.192,-2.603,-0.251,-0.206,0.557,0.267,0.294,0.465,0.018,0.485,0.231,0.239,-1.965,0.196,-1.539,-1.538,0.366,0.089,0.122,-0.145,-0.041,0.191,0.18,-0.409,0.099,-0.474,0.301,0.395,0.027,-1.689,-0.714,0.526,-3.317,-0.006,-0.234,-0.327,0.23,-0.462,-0.287,-0.02,-0.321,-0.317,-0.042,0.028
7,141695655,141696087,28605,TRBV6-2,-0.0504,-0.003,-0.848,-0.956,-0.843,-0.669,0.0098,0.453,0.186,0.355,0.322,-0.135,-0.104,-0.166,-0.084,-0.35,-0.257,0.315,-0.031,0.13,-0.295,-0.144,0.241,-0.564,0.042,-0.1872,-0.706,-1.599,0.29,-2.535,-1.497,-0.782,-0.251,-0.206,0.557,0.267,0.294,-0.3346,0.434,-2.904,0.231,-0.1446,0.064,-2.003,-1.897,-2.303,0.298,-0.2195,0.122,-0.0176,0.343,0.191,-0.0206,-0.0298,0.099,0.213,-0.475,0.395,0.045,0.459,0.003,0.526,-0.864,0.0144,-0.0908,-0.273,-0.282,-2.249,0.0294,0.1064,-0.2956,-0.317,-0.042,0.028
7,142158332,142161991,154754,TRY6,-0.022,0.432,-0.284,-0.421,-0.307,-0.341,0.012,0.553,0.186,0.355,0.322,-1.816,-0.104,0.321,-0.084,-2.065,0.45,0.315,-1.775,0.13,-0.295,-0.144,0.698,-0.009,-1.938,0.854,0.715,-0.643,0.29,1.134,-0.191,-4.448,-0.251,-2.001,0.557,-1.912,0.294,0.015,-2.121,-0.395,0.626,-0.392,0.612,0.18,0.146,-0.078,0.298,0.067,0.122,-0.125,-2.332,0.191,-3.901,-0.039,0.099,0.213,0.84,0.395,0.031,0.48,-0.204,0.526,-0.864,-2.463,-3.111,-0.313,0.262,-1.706,-2.35,-0.043,-0.319,0.188,-0.042,0.028
7,157024516,158073179,5799,PTPRN2,-0.022,2.195,-0.841,-0.975,-0.843,-0.673,-0.54,0.091,0.186,0.355,2.806,0.212,-0.104,0.26,-0.042,0.316,0.084,0.551,2.334,0.13,-0.295,-0.144,-0.406,-0.001,-0.263,-0.23,1.006,2.779,0.286,0.411,0.135,-0.76,0.007,-0.229,0.492,0.264,0.294,0.45,0.006,0.092,0.168,0.206,0.248,0.691,0.129,-0.078,0.35,0.507,-0.225,0.13,-0.332,2.594,0.507,-0.039,-0.249,-0.201,0.331,0.395,0.026,0.258,-0.846,0.53,-0.226,0.002,-0.266,-0.906,0.263,0.122,-0.308,-0.043,-0.319,-0.288,-0.046,0.028
8,2782789,4839736,64478,CSMD1,-0.062,-0.946,-0.873,-1.006,-0.855,-0.942,0.002,-0.578,-0.87,-0.332,-0.507,0.511,-2.482,-0.736,-0.129,-1,-0.562,-2.429,-1.004,-0.448,-0.374,-0.142,-2.229,-0.419,-0.491,0.256,-0.284,0.07,-0.453,-2.449,-0.651,-0.152,-0.538,-0.627,-0.923,-0.059,-0.666,-0.349,-2.453,-1.129,-0.316,0.005,-1.603,-0.433,0.124,-0.051,-0.446,-0.588,-2.03,-0.312,-0.823,-0.458,-2.971,-0.438,-0.254,-0.898,-0.624,0.095,0.01,-0.588,-0.812,-0.215,-2.326,0.001,-0.354,0.694,-0.402,-2.754,-0.746,-0.37,-0.305,-0.305,-0.118,-0.018
8,23442417,23485681,51312,SLC25A37,-0.062,0.017,-0.888,-0.978,-0.866,-0.973,0.027,-0.532,-0.856,-0.332,-0.456,0.511,-0.382,-0.723,-0.061,-0.273,-0.54,-3.555,-0.998,-0.448,-0.365,-0.07,-0.911,-0.377,-0.425,0.152,-0.295,0.09,-0.453,-0.37,-3.557,-3.962,-3.239,-0.59,-0.956,-0.036,-0.666,-4.159,-0.445,-1.129,-0.314,0.047,-0.369,-0.433,0.124,-0.086,-0.315,-0.537,-3.29,-0.251,-0.823,-0.414,-4.081,-0.414,-0.218,-0.845,-2.243,0.148,0.06,-0.552,-0.685,-5.047,-0.129,0.026,-0.156,-0.957,-0.331,-0.42,-0.746,-0.369,-3.624,-0.274,-0.066,0.011
8,39084325,39261593,203102,ADAM32,-0.062,0.017,-0.95,-0.998,-0.888,-1.061,0.027,-0.542,-0.174,-0.204,1.083,0.534,0.993,-0.121,-0.055,-0.296,0.98,-0.251,-1.03,-0.486,0.721,0.073,0.363,0.074,-0.335,0.152,-0.295,0.052,0.27,0.859,0.554,-0.137,-0.54,-0.59,0.011,-0.036,-0.666,-0.376,0.243,-1.129,-0.314,0.042,0.968,-0.433,0.124,-0.086,-0.317,-0.696,0.258,-0.275,0.134,-0.446,3.695,0.072,-0.254,0.797,-0.102,0.096,0.013,-0.599,0.383,-0.199,-0.194,0.026,0.061,0.725,-0.349,1.24,1.672,0.285,0.319,0.595,-0.507,-0.445
8,39291339,39393902,255926,ADAM5,-2.237,-2.365,-0.95,-0.998,-0.888,-1.061,0.722,-0.542,-0.174,-1.888,1.636,-1.395,1.824,0.54,-2.291,-0.296,1.685,0.338,-2.017,-0.486,1.457,0.682,-1.943,-0.479,-0.335,0.756,-0.295,0.052,0.27,1.495,1.215,-0.137,-1.496,1.673,0.633,-0.036,-0.666,-0.376,0.852,-1.129,-0.314,0.042,-0.761,-0.433,0.124,-0.086,-0.317,-0.696,0.258,-0.275,0.8,-0.446,-0.489,0.644,0.397,1.397,-0.102,0.096,0.013,-0.599,0.383,0.491,0.417,0.026,0.455,-2.281,-0.349,1.24,2.017,0.285,0.319,1.256,-0.507,-0.445
8,39427721,39499524,1587,ADAM3A,-2.237,-2.365,-0.237,-0.376,-0.866,-0.354,0.722,-0.027,-0.174,-1.888,1.636,-1.395,1.824,0.54,-2.291,-0.296,1.685,0.338,-2.017,0.196,1.457,0.682,-1.943,-0.479,0.214,0.756,-0.295,0.052,0.27,1.495,1.215,-0.137,-1.496,0.71,0.633,-0.036,-0.05,0.196,0.852,-1.129,0.281,0.042,0.31,-0.433,0.124,-0.086,-0.317,0.089,0.258,-0.275,0.8,-0.446,0.013,0.644,0.397,1.397,-0.102,0.096,0.013,-0.001,-0.129,0.491,0.417,0.026,0.455,-2.281,-0.349,0.145,2.017,0.285,0.319,1.256,0.106,0.188
8,131861729,132123854,114,ADCY8,0.384,0.042,0.387,-2.929,-2.835,-2.72,0.03,-0.538,0.187,0.462,0.746,0.56,0.753,-0.1,-0.072,0.126,0.675,0.441,0.242,-0.144,0.019,0.255,-0.424,-3.452,0.657,0.154,-4.101,-0.212,0.924,0.583,0.644,0.726,0.809,1.565,0.52,-3.152,0.702,0.981,0.755,0.486,0.566,0.681,0.276,0.212,0.411,0.244,0.56,0.457,0.595,0.171,0.433,0.26,0.626,0.397,0.387,-0.231,-0.104,-2.85,1.525,-0.599,0.426,0.633,0.206,0.038,0.142,0.75,-0.4,0.147,0.69,0.975,0.319,-2.892,0.234,0.326
9,494703,736103,23189,ANKRD15,0.317,-0.003,-1.691,-1.893,-2.397,-1.576,-0.657,-0.203,-2.643,-1.013,-3.018,0.182,-0.413,-0.14,-0.041,0.457,-0.496,1.021,-0.406,-0.517,-0.924,-0.624,-0.428,-0.573,-0.451,0.095,0.341,-0.475,-1.121,-0.033,0.342,-0.739,-0.129,0.558,0.296,-1.137,-0.043,-0.27,0.831,0.742,-2.366,-2.347,-0.365,0.383,-0.109,-0.082,-0.473,0.366,-1.564,0.112,-0.84,-0.124,0.506,-0.627,-0.234,-0.882,-0.084,-0.685,0.048,-0.228,0.367,-0.826,-2.804,-0.073,-0.722,-0.41,-0.332,-0.418,-0.181,-0.404,-0.306,-0.296,-0.084,-0.001
9,21684998,21792352,402359,LOC402359,-0.046,0.015,-0.35,-0.377,-0.251,-0.374,-0.648,-0.203,-0.232,-1.03,-0.275,0.166,-0.439,-0.109,-0.134,0.244,0.044,0.544,-2.233,-0.517,-0.429,-0.64,-0.435,-0.067,-0.451,0.136,-2.558,-0.475,-0.048,-0.052,0.008,-0.775,-0.129,-0.221,0.296,-1.152,-0.031,0.285,-0.464,0.797,-0.48,-0.088,-0.365,-0.085,-1.749,-1.584,0.056,-0.245,0.031,-2.711,-0.845,-0.064,-0.429,-0.627,-0.219,-0.882,-0.089,-2.8,0.026,-0.228,-2.92,-2.484,-2.568,-0.75,-0.357,-0.376,-1.991,-0.418,-0.181,-0.35,-0.306,-0.296,-0.088,0.022
9,21792635,21855970,4507,MTAP,-0.046,0.015,-0.302,-0.377,-0.251,-0.374,-0.648,-0.203,-0.232,-1.03,-0.275,0.166,-0.439,-0.109,-0.134,0.244,0.044,0.544,-2.233,-0.517,-0.429,-0.64,-0.435,-0.067,-0.451,0.136,-2.558,-0.475,-0.048,-0.052,0.008,-0.775,-0.129,-0.221,0.296,-1.152,-0.031,0.285,-2.607,0.797,-0.48,-0.088,-0.365,-2.448,-1.749,-1.584,0.056,-2.158,0.031,-2.711,-0.845,-0.064,-0.429,-0.627,-0.219,-0.882,-0.089,-2.8,0.026,-0.228,-2.92,-2.484,-2.568,-0.75,-0.357,-0.376,-1.991,-0.418,-0.181,-0.35,-0.306,-0.296,-0.088,0.022
9,21957144,21957747,51198,C9orf53,-0.046,0.015,-0.302,-0.377,-0.251,-0.374,-0.648,-0.203,-0.232,-1.03,-0.275,0.166,-0.439,-0.109,-0.134,0.244,0.044,0.544,-2.233,-0.517,-0.429,-0.64,-0.435,-0.067,-0.451,0.136,-2.558,-0.475,-0.048,-0.052,0.008,-2.429,-0.129,-0.221,0.296,-1.152,-0.031,0.285,-2.607,0.797,-0.48,-0.088,-0.365,-2.448,-1.663,-1.584,0.056,-2.158,0.031,-2.711,-0.845,-0.064,-0.429,-0.627,-0.219,-0.882,-0.089,-2.8,0.026,-0.228,-2.92,-2.484,-2.568,-0.75,-0.357,-0.376,-1.991,-0.418,-0.181,-0.35,-0.306,-0.296,-0.088,0.022
9,21957751,21984490,1029,CDKN2A,-0.046,0.015,-0.302,-0.377,-0.251,-0.374,-0.648,-0.203,-2.561,-1.03,-0.275,0.166,-0.439,-0.109,-0.134,0.244,0.044,0.544,-2.233,-0.517,-0.429,-0.64,-0.435,-0.067,-0.451,0.136,-2.558,-0.475,-0.048,-0.052,0.008,-2.429,-0.129,-0.221,0.296,-1.152,-0.031,0.285,-2.607,0.797,-0.48,-2.756,-0.365,-2.448,-1.663,-1.584,-2.477,-2.158,0.031,-2.711,-0.845,-0.064,-0.429,-0.627,-0.219,-0.882,-0.089,-2.8,0.026,-0.228,-2.92,-2.484,-2.568,-0.75,-0.357,-0.376,-1.991,-0.418,-0.181,-0.35,-0.306,-0.296,-0.088,0.022
9,21992902,21999312,1030,CDKN2B,-0.046,-0.708,-0.302,-0.377,-0.251,-0.374,-0.648,-0.203,-2.827,-1.03,-0.275,0.166,-0.439,-0.109,-0.134,0.244,0.044,0.544,-2.233,-0.517,-0.429,-0.64,-0.435,-0.067,-0.451,0.136,-2.558,-0.475,-0.048,-0.052,0.008,-2.429,-0.129,-0.221,0.296,-1.152,-0.031,0.285,-2.607,0.797,-0.48,-0.081,-0.365,-1.014,-1.823,-1.584,-2.477,-1.026,0.031,-2.711,-0.845,-0.064,-0.429,-0.627,-0.219,-0.882,-0.089,-2.8,0.026,-0.228,-2.92,-2.484,-2.568,-0.75,-0.357,-0.376,-1.991,-0.418,-0.181,-0.35,-0.306,-0.296,-0.088,0.022
9,22325299,22353764,646605,LOC646605,-0.046,0.057,-0.302,-0.377,-0.251,-0.374,-0.648,-0.203,-0.236,-1.03,-0.275,0.166,-0.368,-0.109,-0.134,0.321,0.044,0.544,-2.435,-0.517,-0.429,-0.64,-0.435,-0.067,-0.451,0.136,-0.261,-0.475,-0.048,-0.052,0.008,-0.77,-0.129,-0.221,0.296,-1.152,-0.031,0.285,-2.607,0.797,-0.48,-0.081,-0.365,-0.406,-0.612,-0.539,0.007,-0.181,0.031,-2.711,-0.845,-0.064,-0.429,-0.627,-0.219,-0.882,-0.089,-2.8,0.026,-0.228,-0.779,-2.484,-2.568,-0.75,-0.357,-0.376,-1.991,-0.418,-0.181,-0.35,-0.306,-0.296,-0.088,0.022
9,22436840,22442472,63951,DMRTA1,-0.046,0.057,-0.302,-0.377,-0.251,-0.374,-0.648,-0.203,-0.236,-1.03,-0.275,0.045,-0.368,-0.109,-0.134,0.321,0.044,0.544,-2.435,-0.517,-0.429,-0.64,-0.371,-0.067,-0.451,0.136,-0.261,-0.475,-0.048,-0.052,0.008,-0.77,-0.129,-0.221,0.296,-1.152,-0.031,0.285,-2.607,0.797,-0.48,-0.081,-0.365,-0.406,-0.612,-0.539,0.007,-0.181,0.031,-2.711,-0.845,-0.064,-0.429,-0.627,-0.219,-0.882,-0.089,-2.8,0.026,-0.228,-0.779,-2.484,-2.568,-0.75,-0.357,-0.376,-1.991,-0.418,-0.181,-0.35,-0.306,-0.296,-0.088,0.022
9,22636205,22814206,441389,FLJ35282,-0.046,0.057,-0.302,-0.377,-0.251,-0.374,-0.648,-0.203,-0.236,-1.03,-0.658,-1.017,-0.368,-0.109,-0.134,0.321,0.044,0.544,-2.435,-0.517,-0.429,-0.595,-0.371,-0.067,-0.451,0.136,-0.261,-0.475,-0.048,-0.052,0.008,-0.77,-0.129,-0.221,0.296,-1.152,-0.031,0.285,-2.607,0.797,-0.48,-0.081,-0.365,-0.406,-0.612,-0.539,0.007,-0.213,0.031,-2.711,-0.865,-0.064,-0.429,-0.627,-0.219,-0.882,-0.089,-2.8,0.026,-0.228,-0.779,-2.484,-2.568,-0.025,-0.357,-0.376,-1.991,-0.418,-0.181,-0.35,-0.306,-0.296,-0.072,0.022
9,22724319,22738236,646609,LOC646609,-0.046,0.057,-0.302,-0.377,-0.251,-0.374,-0.648,-0.203,-0.236,-1.03,-0.658,-0.225,-0.368,-0.109,-0.134,0.321,0.044,0.544,-2.435,-0.517,-0.429,-0.595,-0.371,-0.067,-0.451,0.136,-0.261,-0.475,-0.048,-0.052,0.008,-0.77,-0.129,-0.221,0.296,-1.152,-0.031,0.285,-2.607,0.797,-0.48,-0.081,-0.365,-0.406,-0.612,-0.539,0.007,-0.213,0.031,-2.711,-0.865,-0.064,-0.429,-0.627,-0.219,-0.882,-0.089,-2.8,0.026,-0.228,-0.779,-2.484,-2.568,-0.025,-0.357,-0.376,-1.991,-0.418,-0.181,-0.35,-0.306,-0.296,-0.072,0.022
9,22806621,22811769,646611,LOC646611,-0.046,0.057,-0.302,-0.377,-0.251,-0.374,-0.648,-0.203,-0.236,-1.03,-0.262,0.032,-0.368,-0.109,-0.134,0.321,0.044,0.544,-2.435,-0.517,-0.429,-0.595,-0.371,-0.067,-0.451,0.136,-0.261,-0.475,-0.048,-0.052,0.008,-0.77,-0.129,-0.221,0.296,-1.152,-0.031,0.285,-2.607,0.797,-0.48,-0.081,-0.365,-0.406,-0.612,-0.539,0.007,-0.213,0.031,-2.711,-0.865,-0.064,-0.429,-0.627,-0.219,-0.882,-0.089,-2.8,0.026,-0.228,-0.779,-2.484,-2.568,-0.025,-0.357,-0.376,-1.991,-0.418,-0.181,-0.35,-0.306,-0.296,-0.072,0.022
9,23671895,23672796,402360,LOC402360,-0.046,0.057,-0.302,-0.377,-0.251,-0.374,-0.647,-0.203,-0.236,-1.03,-0.262,0.094,-0.368,-0.109,-0.125,0.321,0.044,0.544,-2.435,-0.517,-0.429,-0.595,-0.371,-0.067,-0.459,0.136,-0.278,-0.475,-0.048,-0.052,0.008,-0.77,-0.129,-0.221,0.296,-1.165,0.004,0.285,-2.607,0.797,-0.469,-0.081,-0.365,-0.479,-0.599,-0.564,-0.109,-0.244,0.066,-2.711,-0.865,-0.064,-0.433,-0.627,-0.219,-0.892,-0.089,-2.8,0.026,-0.228,-0.784,-0.833,-2.568,-0.025,-0.357,-0.376,-1.991,-0.418,-0.167,-0.356,-0.306,-0.296,-0.064,0.019
9,23681984,23816297,1993,ELAVL2,-0.046,0.057,-0.302,-0.377,-0.251,-0.374,-0.647,-0.203,-0.236,-1.03,-0.262,0.094,-0.368,-0.109,-0.125,0.321,0.044,0.544,-2.435,-0.517,-0.429,-0.595,-0.371,-0.067,-0.459,0.136,-0.278,-0.475,-0.048,-0.052,-1.188,-0.77,-0.129,-0.221,0.296,-1.165,0.004,0.285,-2.607,0.797,-0.469,-0.081,-0.365,-0.479,-0.599,-0.564,-0.109,-0.244,0.066,-2.711,-0.865,-0.064,-0.433,-0.627,-0.219,-0.892,-0.089,-2.8,0.026,-0.228,-0.784,-0.833,-2.568,-0.025,-0.357,-0.376,-1.991,-0.418,-0.167,-0.356,-0.306,-0.296,-0.064,0.019
9,24533227,24536004,646636,LOC646636,-0.046,0.057,-0.302,-0.377,-0.251,-0.374,-0.647,-0.178,-0.236,-1.03,-0.402,-0.102,-0.368,-0.109,-0.125,0.015,0.044,0.544,-2.435,-0.517,-0.429,-0.595,-0.371,-0.067,-0.459,0.136,-0.278,-0.475,-0.048,-0.052,0.008,-0.77,-0.129,-0.221,0.296,-1.165,0.004,0.285,-2.607,0.797,-0.469,-0.081,-0.365,-0.479,-0.08,-0.016,-0.109,-0.244,0.066,-2.711,-0.842,-0.064,-0.433,-0.627,-0.219,-0.892,-0.089,-2.8,0.026,-0.216,-0.784,-0.833,-2.568,-0.035,-0.357,-0.376,-1.991,-0.418,-0.167,-0.356,-0.306,-0.296,-0.064,0.019
9,27938528,28709303,158038,LRRN6C,-0.046,0.057,-0.302,-0.377,-0.342,-0.374,-0.647,-0.178,-0.236,-1.03,-0.386,-0.879,-0.368,-0.109,-0.125,0.015,0.044,0.544,-2.435,0.497,0.286,0.594,-0.371,-0.067,1.187,0.136,-0.278,-0.475,-0.048,-0.052,0.008,-0.77,-0.129,-0.221,0.296,-1.151,0.004,-0.267,-2.607,0.735,-0.469,-0.081,-0.365,-0.479,-0.08,-0.016,0.272,-0.244,0.066,0.368,-3.104,-0.064,-0.433,0.306,-0.219,-0.892,-0.089,-2.8,0.026,-0.216,-0.741,-0.833,-0.866,-0.035,-0.357,-0.376,-0.311,-0.418,-0.167,0.241,-0.306,-0.296,-0.064,0.019
9,45331997,45455114,643473,LOC643473,-0.046,-0.02,0.005,0.017,-0.01,-0.018,-0.26,-0.178,-0.209,-0.352,-0.211,-0.07,-0.06,-0.109,0.112,0.47,0.064,0.695,-0.427,0.159,-0.027,0.167,0.401,0.017,0.078,0.129,0.094,-0.251,-0.141,0.04,0.008,-0.124,-0.036,-0.541,-0.573,-0.29,0.004,-0.094,0.287,-0.184,-0.194,-6.439,1.469,-0.006,-0.08,-0.054,0.048,-0.191,0.002,-0.159,-0.186,0.2,0.162,0.211,-0.164,0.122,0.164,0.066,0.026,-0.383,-0.204,-0.676,0.188,0.002,-0.053,-0.293,-0.07,-0.418,-0.142,0.196,-0.139,-0.296,-0.159,0.024
9,65248026,65405469,643827,LOC643827,-0.046,-0.02,0.005,0.017,-0.01,-0.018,-0.26,-0.178,-0.209,-0.352,-0.211,-0.099,-2.388,-0.109,0.112,0.001,0.064,0.216,-0.427,-2.278,-2.576,0.167,-0.099,0.017,0.078,0.129,0.094,-0.251,-0.141,0.04,0.008,-0.124,-3.122,0.1,-2.709,-0.29,0.004,-0.094,0.287,-4.747,-0.194,-0.088,0.152,-0.006,-0.08,-0.054,0.048,-0.191,0.002,-0.159,-0.186,0.2,0.162,-0.24,-0.164,0.122,0.164,0.066,0.026,0.047,0.315,-2.826,0.168,0.002,-0.053,-0.293,-0.07,-0.418,-0.142,0.196,-0.139,-0.296,-0.159,0.024
9,67665247,67789313,441440,LOC441440,-0.046,-0.02,0.005,0.017,-0.01,-0.018,-0.26,-0.178,-0.209,1.861,2.288,2.394,-0.003,-0.109,0.112,1.715,0.064,1.268,-1.016,0.284,-0.046,0.167,-0.099,0.017,-0.573,0.129,0.094,0.347,1.881,0.04,0.008,-0.124,-0.018,0.1,0.011,-0.29,0.004,-0.094,2.423,0.464,-0.194,-0.088,0.152,-0.006,-0.08,-0.054,0.048,1.694,2.642,-0.159,-0.186,0.2,0.162,2.292,1.231,0.122,0.164,1.719,0.026,0.047,0.315,-0.211,2.084,0.002,-0.053,2.049,-0.378,-0.418,2.062,0.196,-0.139,-0.296,1.735,0.024
9,108665199,108813628,58499,ZNF462,-0.046,0.002,-0.035,-0.004,-0.098,-0.049,0.003,-0.163,0.174,0.13,0.149,0.209,-0.35,-0.109,-0.124,0.023,0.064,-0.233,-0.041,0.046,-0.015,0.172,-0.099,0.293,0.184,0.133,0.094,-0.15,0.238,-0.022,0.174,-0.124,0.274,0.147,0.036,-0.073,0.004,-0.126,0.146,-0.019,-0.242,-0.088,-0.059,-0.064,-0.08,-0.054,0.068,0.157,-0.15,-0.147,0.207,-4.605,0.223,-0.633,-0.201,-0.24,-0.078,-0.105,0.026,0.047,-4.145,-0.211,0.161,0.02,0.188,-0.349,0.028,-0.418,-0.176,0.182,0.297,-0.296,-0.055,0.024
9,139321178,139437435,54932,FLJ20433,-0.046,-2.924,-0.035,0.706,-0.053,-0.025,0.003,-0.163,-3.396,0.153,0.184,0.228,-0.114,-0.109,0.068,0.002,0.458,-0.179,0.246,0.129,-0.005,0.166,-0.089,0.293,0.184,0.151,0.104,1.253,0.274,0.007,0.367,-0.09,0.062,-2.744,-0.017,-0.066,0.004,-2.514,0.146,-0.01,-0.239,-0.088,0.026,-0.038,-0.08,-0.054,-1.377,0.095,-0.133,0.089,1.099,-0.163,0.271,-1.534,-0.201,-0.232,0.053,-0.032,0.026,0.047,0.531,-0.158,-0.198,0.02,-0.131,-0.147,0.091,-0.415,-0.054,0.182,0.292,-0.296,-0.066,0.024
